Place,Name,Country,BirthDate,WeightClassKg,BodyweightKg,Squat1Kg,Squat2Kg,Squat3Kg,Best3SquatKg,Squat4Kg,Bench1Kg,Bench2Kg,Bench3Kg,Best3BenchKg,Bench4Kg,Deadlift1Kg,Deadlift2Kg,Deadlift3Kg,Best3DeadliftKg,Deadlift4Kg,TotalKg,Event,Equipment,Sex,Division
1,Daniel Pianka,Czechia,1977-01-29,67.5,63.65,-170,-170,170,170,,115,-130,-130,115,,185,200,-207.5,200,,485,SBD,Multi-ply,M,O
1,Edgars Peterlēvics,Latvia,1986-06-29,90,88.4,300,-310,-315,300,,260,270,277.5,277.5,-281,250,260,-265,260,,837.5,SBD,Multi-ply,M,O
1,Darren Bennett,Ireland,1984-07-29,110,103.7,-260,260,,260,,200,-220,,200,,260,280,290,290,,750,SBD,Multi-ply,M,O
DQ,Mahmoud Omranikhameneh,Iran,1985-12-08,125,116.2,-320,-320,-320,,,-170,,,,,-250,,,,,,SBD,Multi-ply,M,O
1,Eugenijus Cibulskis,Lithuania,1975-05-31,100,94.3,-235,-235,235,235,,125,135,,135,,200,220,-230,220,,590,SBD,Multi-ply,M,M2
DQ,Vladimír Gosin,Israel,1965-06-06,100,95.5,-270,290,,290,,-170,-180,-180,,,-260,,,,,,SBD,Multi-ply,M,M4
1,Karol Brečka,Czechia,1961-04-16,82.5,80.05,-212.5,212.5,-225,212.5,,115,125,-130,125,,202.5,217.5,,217.5,,555,SBD,Multi-ply,M,M5
1,Mieczysłąw Maczka,Germany,1954-09-11,82.5,81.3,120,132.5,140,140,,90,97.5,100,100,,125,142.5,-150,142.5,,382.5,SBD,Multi-ply,M,M6
1,David Rex Thomas,UK,1951-07-12,125,112.9,110,120,,120,,70,-100,100,100,,140,150,,150,,370,SBD,Multi-ply,M,M7
DQ,Perta Scocz,Hungary,2004-09-22,90,86.2,-125,-125,-125,,,-45,,,,,-120,,,,,,SBD,Wraps,F,T2
1,Simona Rančev,Czechia,2002-02-28,56,55.82,90,100,-107.5,100,,50,55,-60,55,,115,120,125,125,,280,SBD,Wraps,F,T3
2,Kateřina Janoutová,Czechia,2002-08-11,56,56,-90,90,100,100,,60,65,-67.5,65,,110,115,-117.5,115,,280,SBD,Wraps,F,T3
1,Ema Mišovčíková,Slovakia,2003-07-21,60,58.06,145,155,160,160,,70,75,80,80,,155,165,-170,165,-170,405,SBD,Wraps,F,T3
2,Martyna Pietrasik,Poland,2003-01-21,60,60,90,97.5,102.5,102.5,,-32.5,32.5,37.5,37.5,,120,130,-140,130,,270,SBD,Raw,F,T3
1,Angelika Gryc,Poland,2003-07-23,82.5,80.45,90,-100,110,110,,50,60,67.5,67.5,,135,150,-165,150,,327.5,SBD,Wraps,F,T3
2,Pavlina Šedá,Czechia,2002-02-11,82.5,80.5,100,107.5,-112.5,107.5,,47.5,-52.5,52.5,52.5,,117.5,127.5,135,135,,295,SBD,Wraps,F,T3
1,Kristina Zafirova,Slovenia,2001-04-12,52,51.7,115,125,-135,125,,75,80,90,90,-95,115,125,140,140,150,355,SBD,Wraps,F,J
1,Aleksandra Szymczykowska,Poland,1998-04-17,60,59.15,-140,140,-150,140,,100,102.5,-105,102.5,,160,167.5,172.5,172.5,-175,415,SBD,Wraps,F,J
2,Ela Kardaś,Poland,1999-12-16,60,58.32,80,90,100,100,,40,50,55,55,,120,-130,-130,120,,275,SBD,Wraps,F,J
1,Michaela Zemanová,Czechia,2000-01-12,75,68.2,-155,-155,155,155,,85,90,92.5,92.5,,170,180,-185,180,,427.5,SBD,Wraps,F,J
2,Kristína Kastelic,Slovenia,2001-03-16,75,74.25,-130,140,-152.5,140,,45,-52.5,-52.5,45,,125,135,-145,135,,320,SBD,Wraps,F,J
3,Natalija Bedene,Slovenia,2001-06-20,75,74.2,-95,-100,100,100,,37.5,42.5,-47.5,42.5,,-100,100,110,110,,252.5,SBD,Wraps,F,J
1,Magda Urbanowicz,Poland,1993-10-13,48,47.94,122.5,130,-135.5,130,,70,-75,75,75,,142.5,-150.5,150.5,150.5,-152.5,355.5,SBD,Wraps,F,O
1,Roksolana Busko,Ukraine,1996-03-04,52,51.46,-130,130,-140,130,,67.5,70,-72.5,70,,130,137.5,145,145,,345,SBD,Wraps,F,O
2,Mariya Grigoryan,Armenia,1992-01-09,52,51.76,80,90,105,105,,65,70,-75,70,,105,115,122.5,122.5,,297.5,SBD,Wraps,F,O
3,Charlotte O'Boyle,UK,1994-07-22,52,50.54,-80,-80,80,80,,37.5,42.5,45,45,,105,110,-112.5,110,,235,SBD,Wraps,F,O
4,Sylvia Schmidt,Germany,1983-09-06,52,49.54,65,75,-80,75,,45,47.5,-50,47.5,,102.5,107.5,110,110,,232.5,SBD,Wraps,F,O
1,Joanna Jendraszek,Poland,1990-09-30,56,55.6,90,100,-105,100,,47.5,52.5,55,55,,105,110,117.5,117.5,,272.5,SBD,Wraps,F,O
1,Małgorzata Bartosiak,Poland,1983-06-06,60,57.72,105,115,120,120,,47.5,52.5,-57.5,52.5,,132.5,140,145,145,,317.5,SBD,Wraps,F,O
2,Anna Przybysz,Poland,1989-01-27,60,58.42,105,115,-120,115,,47.5,52.5,-55,52.5,,110,120,125,125,,292.5,SBD,Wraps,F,O
3,Doreen Durschak,Germany,1984-08-16,60,59.4,82.5,87.5,-90,87.5,,-52.5,55,-57.5,55,,102.5,107.5,-112.5,107.5,,250,SBD,Wraps,F,O
1,Eszter Tompa,Hungary,1984-11-21,75,73.05,145,-160,165,165,-170,65,70,75,75,,130,142.5,147.5,147.5,,387.5,SBD,Wraps,F,O
2,Natalie Hurdley,UK,1988-08-20,75,75,107.5,-112.5,-112.5,107.5,,60,-65,-65,60,,125,130,135,135,,302.5,SBD,Wraps,F,O
1,Magdalena Zwierzchaczewska,Poland,1994-12-31,82.5,79.75,80,85,90,90,,40,-45,-45,40,,95,105,-117.5,105,,235,SBD,Wraps,F,O
1,Oktawia Lurka,Poland,1990-02-22,90,86.75,210,215,220,220,,125,130,-132.5,130,,215,222.5,227.5,227.5,,577.5,SBD,Wraps,F,O
1,Ruslana Moldovanova,Ukraine,1986-06-24,110+,112.2,-120,-130,130,130,,70,75,-80,75,,150,160,175,175,,380,SBD,Wraps,F,O
1,Heghine Sargsyan,Armenia,1979-01-15,56,55.02,-65,65,72.5,72.5,,32.5,35,-37.5,35,,90,100,110,110,,217.5,SBD,Wraps,F,M1
1,Milena Jabłońska,Poland,1978-04-02,60,59.85,65,70,80,80,,37.5,40,42.5,42.5,,100,-110,120,120,,242.5,SBD,Wraps,F,M1
1,Kateryna Khomych,Ukraine,1981-04-01,67.5,61.1,100,107.5,110,110,,55,-60,-60,55,,127.5,135,-140,135,,300,SBD,Wraps,F,M1
1,Andreja Valant,Slovenia,1980-09-09,110,93.85,-150,150,-160,150,,50,60,62.5,62.5,,140,142.5,145,145,,357.5,SBD,Wraps,F,M1
1,Monika Świrska,Poland,1976-01-19,56,55.2,112.5,117.5,125,125,,70,75,-78,75,,150.5,-160.5,-160.5,150.5,,350.5,SBD,Wraps,F,M2
1,Lenka Štollerová,Czechia,1970-08-15,67.5,65.4,100,-111,-111,100,,57.5,62.5,-65,62.5,,125,135,140,140,,302.5,SBD,Wraps,F,M3
1,Lesley Jayne Thomas,UK,1966-04-21,60,58.86,130,-137.5,137.5,137.5,,67.5,70,72.5,72.5,,140,147.5,152.5,152.5,-160,362.5,SBD,Wraps,F,M4
1,Amanda Dewhurst,UK,1965-05-04,67.5,67.5,90,100,105,105,,55,62.5,-67.5,62.5,,135,140,143,143,147.5,310.5,SBD,Wraps,F,M4
1,Jakub Jarończyk,Poland,2005-10-24,75,74.25,120,135,150,150,,80,-90,90,90,,165,180,-190,180,,420,SBD,Wraps,M,T1
2,Maciej Piotrowski,Poland,2006-07-13,75,73.7,-120,120,-130,120,,85,90,-95,90,,145,152.5,160,160,,370,SBD,Wraps,M,T1
1,Seweryn Florczyk,Poland,2006-05-04,110,106.65,120,130,-145,130,,80,85,90,90,,130,140,150,150,,370,SBD,Wraps,M,T1
1,Radosław Bober,Poland,2004-01-28,60,58.88,110,120,130,130,,70,80,90,90,,140,150,160,160,,380,SBD,Wraps,M,T2
1,An Vu Truong,Czechia,2004-11-06,75,74.65,180,200,-210,200,,90,100,-105,100,,170,185,190,190,,490,SBD,Wraps,M,T2
2,Matias Dvořák,Czechia,2005-04-07,75,73.65,120,140,150,150,,75,-85,-90,75,,150,165,-172.5,165,,390,SBD,Wraps,M,T2
3,Kacper Sibilski,Poland,2005-06-05,75,68.35,-145,-145,145,145,,75,80,-82.5,80,,145,-150,-150,145,,370,SBD,Wraps,M,T2
DQ,František Václav Straka,Czechia,2005-02-18,75,74,150,-170,-170,150,,-80,-90,-90,,,-160,,,,,,SBD,Wraps,M,T2
1,Huw Curram,UK,2004-05-11,82.5,81.35,210,-225,225,225,,140,150,155,155,,240,-255,-255,240,,620,SBD,Wraps,M,T2
2,Jakub Tabor,Poland,2003-12-21,82.5,80.2,-165,165,177.5,177.5,,100,105,-110,105,,195,210,217.5,217.5,,500,SBD,Wraps,M,T2
1,Jiří Uhrin,Czechia,2004-01-31,100,99.5,205,-217.5,225,225,,120,127.5,-132.5,127.5,,190,-195,195,195,,547.5,SBD,Wraps,M,T2
2,Hubert Jaworski,Poland,2004-03-11,100,99.2,-180,180,190,190,,130,-135,-135,130,,-210,220,-225,220,,540,SBD,Wraps,M,T2
1,Giorgi Kiladze,Georgia,2005-01-18,110,105.5,-130,135,155,155,,85,95,-105,95,,180,195,200,200,,450,SBD,Wraps,M,T2
DQ,Bartek Rączkiewicz,Poland,2004-09-14,110,106.8,-180,-180,-180,,,-135,,,,,-190,,,,,,SBD,Wraps,M,T2
1,Aleksander Sobierajski,Poland,2003-12-20,140,137.75,180,-190,190,190,,140,145,-150,145,,240,250,-260,250,,585,SBD,Wraps,M,T2
1,Mandla Tshwaku,South Africa,2002-10-05,56,51.14,135,142.5,145.5,145.5,,70,77.5,83,83,,150,160,170.5,170.5,,399,SBD,Wraps,M,T3
1,Radek Knápek,Czechia,2003-04-14,75,74.95,-230,-230,230,230,,130,140,145,145,-150,185,195,200,200,,575,SBD,Wraps,M,T3
1,Dominik Nitsche,Czechia,2002-12-31,82.5,80.9,260,270,272.5,272.5,,140,147.5,150,150,,220,230,237.5,237.5,,660,SBD,Wraps,M,T3
2,Jan Cafourek,Czechia,2002-07-17,82.5,82.05,200,220,-230,220,,120,-140,-140,120,,240,260,-275,260,-275,600,SBD,Wraps,M,T3
3,Richárd Ferkl,Czechia,2002-11-12,82.5,80.8,170,-185,-190,170,,105,110,-115,110,,190,205,210,210,,490,SBD,Wraps,M,T3
4,Mark Habuda,Czechia,2003-05-21,82.5,75.6,160,170,175,175,,95,100,-102.5,100,,-200,200,-212.5,200,,475,SBD,Wraps,M,T3
5,Jure Grablijevec,Slovenia,2002-10-30,82.5,78.3,165,-175,-175,165,,105,110,-115,110,,180,190,200,200,,475,SBD,Wraps,M,T3
DQ,Gal Maršič,Slovenia,2003-09-22,82.5,81.65,-250,-250,-250,,,-135,,,,,-190,,,,,,SBD,Wraps,M,T3
1,Michal Grepl,Czechia,2003-01-08,90,89.4,-205,205,212.5,212.5,,125,132.5,137.5,137.5,,260,275,292.5,292.5,,642.5,SBD,Wraps,M,T3
2,Jan Jansa,Czechia,2002-03-10,90,90,-200,200,-225,200,,115,122.5,-130,122.5,,200,230,-242.5,230,,552.5,SBD,Wraps,M,T3
3,Dawid Holeksa,Poland,2002-03-17,90,84.55,170,180,-185,180,,115,-117.5,-117.5,115,,-210,210,217.5,217.5,,512.5,SBD,Wraps,M,T3
4,Bartosz Firyn,Poland,2001-12-14,90,89.6,-160,175,-190,175,,105,-112.5,117.5,117.5,,180,200,215,215,,507.5,SBD,Wraps,M,T3
5,Matěj Bělina,Czechia,2003-05-17,90,87.65,170,-190,-190,170,,85,90,95,95,,230,-245,-250,230,,495,SBD,Wraps,M,T3
6,Reziko Dolidze,Georgia,2003-09-09,90,84.85,-140,150,-160,150,,85,95,100,100,,185,195,210,210,,460,SBD,Wraps,M,T3
1,Dawid Cesarz,Poland,2003-07-05,100,97.3,230,240,250,250,,145,-150,150,150,,215,225,232.5,232.5,,632.5,SBD,Wraps,M,T3
2,Kacper Sarnowski,Poland,2003-08-31,100,94.1,-210,210,-215,210,,135,-142.5,142.5,142.5,,260,-275,275,275,,627.5,SBD,Wraps,M,T3
3,Szymon Sonntag,Poland,2003-08-01,100,97.55,215,-225,225,225,,140,145,-150,145,,235,245,-255,245,,615,SBD,Wraps,M,T3
4,Jan Kolář,Czechia,2002-05-18,100,95.7,205,217.5,-222.5,217.5,,105,110,115,115,,200,210,215,215,,547.5,SBD,Wraps,M,T3
5,Davit Mzhavanadze,Georgia,2002-06-03,100,94.95,150,-170,185,185,,110,120,-125,120,,190,-210,-215,190,,495,SBD,Wraps,M,T3
1,Petr Matěna,Czechia,2001-11-23,110,105.05,200,215,-230,215,,100,110,115,115,,210,230,240,240,,570,SBD,Wraps,M,T3
DQ,Jan Szopa,Poland,2001-12-09,125,120,-260,-270,-276,,,-150,,,,,-265,,,,,,SBD,Wraps,M,T3
1,Elmeri Töyry,Finland,1998-01-30,67.5,66.65,-195,195,-220,195,,100,-112.5,112.5,112.5,,170,190,-200,190,,497.5,SBD,Wraps,M,J
DQ,Martin Chalupa,Czechia,1999-12-14,67.5,67.48,140,150,-170,150,,-120,-125,-125,,,-155,,,,,,SBD,Wraps,M,J
1,Jakub Domagała,Poland,1999-01-27,75,73.95,-155,-155,155,155,,87.5,95,100,100,,177.5,190,200,200,,455,SBD,Wraps,M,J
1,Matyáš Šenkýř,Czechia,1999-06-21,82.5,80.8,180,200,-210,200,,130,135,142.5,142.5,,205,220,-225,220,,562.5,SBD,Wraps,M,J
2,Konrad Mrozowski,Poland,1999-07-12,82.5,80.45,190,-205,-205,190,,125,-130,130,130,,230,-240,-240,230,,550,SBD,Wraps,M,J
3,Dominik Bílý,Czechia,2001-06-05,82.5,81.7,200,-210,-215,200,,115,125,130,130,,190,200,-210,200,,530,SBD,Wraps,M,J
1,Filip Rotter,Czechia,1999-08-27,90,88.8,245,-280,-307.5,245,,100,145,160,160,,305,315,330,330,-335,735,SBD,Wraps,M,J
2,Miklós Kelemen,Hungary,2000-05-04,90,88.95,225,245,-260,245,,155,170,-175,170,,250,275,-285,275,,690,SBD,Wraps,M,J
3,Paweł Just,Poland,1999-08-14,90,87.75,-255,267.5,-277.5,267.5,,145,152.5,-157.5,152.5,,225,237.5,-250,237.5,,657.5,SBD,Wraps,M,J
4,Michał Łopata,Poland,1998-05-04,90,88.05,205,215,220,220,,140,147.5,152.5,152.5,,265,277.5,-290,277.5,,650,SBD,Wraps,M,J
5,Nikodem Labuda,Poland,2001-09-05,90,87.85,220,235,250,250,,125,132.5,140,140,,230,-250,255,255,,645,SBD,Wraps,M,J
6,Janouszek Oldrich,Czechia,1999-04-03,90,87.7,160,175,-185,175,,135,150,-160,150,,195,215,230,230,,555,SBD,Wraps,M,J
7,Jan Forzpańczyk,Poland,2001-03-21,90,84.75,170,180,190,190,,120,125,-130,125,,190,200,-210,200,,515,SBD,Wraps,M,J
8,Kacper Cecko,Poland,1997-11-27,90,88.25,160,-170,-170,160,,110,-120,-120,110,,200,215,-230,215,,485,SBD,Wraps,M,J
DQ,Hubert Przybylski,Poland,1998-10-14,90,89.8,-270,-270,-270,,,-170,,,,,-275,,,,,,SBD,Wraps,M,J
1,Mateusz Olszówka,Poland,1999-06-11,100,97,-250,250,-265,250,,145,155,-160,155,,260,280,-290,280,,685,SBD,Wraps,M,J
2,Albert Mielczarek,Poland,1998-09-17,100,95.35,220,240,260,260,,135,145,152.5,152.5,,230,255,-270,255,,667.5,SBD,Wraps,M,J
3,Ondřej Štěpán,Czechia,1999-06-28,100,98.95,240,-255,-260,240,,130,142.5,-155,142.5,,260,280,-290,280,,662.5,SBD,Wraps,M,J
4,Mateusz Szymański,Poland,1999-05-03,100,98.65,-210,220,230,230,,137.5,145,-150,145,,255,280,-300,280,,655,SBD,Wraps,M,J
5,Hubert Fink,Poland,1999-11-15,100,99.5,200,-210,220,220,,170,177.5,-180,177.5,,240,-260,-267.5,240,,637.5,SBD,Wraps,M,J
6,Norbert Trajer,Poland,1999-12-23,100,94.95,215,-225,-232.5,215,,130,137.5,142.5,142.5,,210,222.5,-240,222.5,,580,SBD,Wraps,M,J
7,Giorgi Lortkipanidze,Georgia,2001-03-11,100,98.2,190,210,-225,210,,115,125,-135,125,,210,230,245,245,,580,SBD,Wraps,M,J
8,Adrian Graczyk,Poland,1998-10-31,100,97.7,190,-205,210,210,,102.5,107.5,-115,107.5,,210,235,250,250,,567.5,SBD,Wraps,M,J
9,Olaf Susicki,Poland,1997-12-16,100,94.9,210,225,-240,225,,115,-122.5,125,125,,170,185,200,200,,550,SBD,Wraps,M,J
10,Ondřej Kasal,Czechia,1999-04-22,100,98.75,190,-205,-215,190,,110,117.5,120,120,,220,230,-255,230,,540,SBD,Wraps,M,J
11,Jože Šinkovec,Slovenia,1998-02-15,100,97.1,40,,,40,,170,180,-185,180,,70,,,70,,290,SBD,Wraps,M,J
1,Dominik Ponocný,Czechia,1999-10-27,110,107.5,290,-320,320,320,,165,170,-172.5,170,,290,310,330,330,-340.5,820,SBD,Wraps,M,J
2,Martin Medvedyk,Czechia,1999-05-23,110,108.1,280,320,-340,320,,140,150,-162.5,150,,270,285,300,300,,770,SBD,Wraps,M,J
3,Dalibor Novák,Czechia,1998-06-21,110,104.9,275,-290,-290,275,,-155,160,170,170,,270,285,-290,285,,730,SBD,Wraps,M,J
4,Matěj Svoboda,Czechia,1999-09-14,110,106.55,-240,240,-260,240,,120,140,-155,140,,250,275,-285,275,,655,SBD,Wraps,M,J
DQ,Petr Schnajberk,Czechia,1998-01-28,110,107.95,-240,-240,-240,,,-140,,,,,-240,,,,,,SBD,Wraps,M,J
1,Vlastimil Šafařík,Czechia,1998-09-16,125,124.55,300,325,335,335,,195,205,-213,205,,280,-302.5,-302.5,280,,820,SBD,Wraps,M,J
2,Stanisław Biernat,Poland,2001-04-30,125,112.1,-260,260,-270,260,,140,147.5,-155,147.5,,-230,235,-240,235,,642.5,SBD,Wraps,M,J
1,Luboš Klinecký,Czechia,1999-12-16,140+,180,-250,250,-260,250,,170,180,-190,180,,300,310,-320,310,,740,SBD,Wraps,M,J
1,František Tichý,Czechia,1994-09-07,67.5,67,160,175,185,185,,130,135,137.5,137.5,,200,215,-227.5,215,,537.5,SBD,Wraps,M,O
1,Radek Mandl,Czechia,1993-11-16,75,74.35,230,-250,-250,230,,130,145,-152.5,145,,230,250,265,265,,640,SBD,Wraps,M,O
2,Michal Štěpánek,Czechia,1995-07-21,75,74.25,-205,205,-215,205,,115,-120,-120,115,,250,260,-275,260,,580,SBD,Wraps,M,O
3,Grzegorz Skrabarczyk,Poland,1984-09-01,75,72.25,-190,200,210,210,,140,147.5,152.5,152.5,,200,205,-210,205,,567.5,SBD,Wraps,M,O
4,Aleks Piciga,Slovenia,1981-10-26,75,74.15,145,152.5,-157.5,152.5,,105,107.5,-110,107.5,,180,185,,185,,445,SBD,Wraps,M,O
1,Filip Dec,Poland,1993-11-25,82.5,81.45,220,230,-235,230,,155,165,170,170,,230,245,255,255,,655,SBD,Wraps,M,O
2,Gergely Kuti,Hungary,1993-03-13,82.5,81.2,245,260,-270,260,,125,135,140,140,,225,245,-255,245,,645,SBD,Wraps,M,O
3,Oleksandr Trondiuk,Ukraine,1995-12-28,82.5,78.2,205,-220,-220,205,,100,,,100,,210,240,,240,,545,SBD,Wraps,M,O
1,Árpád Ignéczi,Hungary,1995-06-22,90,87.55,265,275,285,285,,175,185,190,190,,322.5,332.5,340,340,,815,SBD,Wraps,M,O
2,Chris Pugh #1,UK,1993-04-16,90,89.7,-315,315,-335,315,,190,200,206.5,206.5,,250,272.5,290,290,,811.5,SBD,Wraps,M,O
3,Adam Vokál,Czechia,1993-08-08,90,87.55,240,260,265,265,,155,165,175,175,,250,270,-275,270,,710,SBD,Wraps,M,O
4,Łukasz Dobrowolski,Poland,1983-12-28,90,89,195,205,-207.5,205,,130,137.5,142.5,142.5,,215,225,235,235,,582.5,SBD,Wraps,M,O
5,Mateusz Wnuk,Poland,1996-04-27,90,89.05,195,-205,-210,195,,120,-125,-125,120,,220,-230,-240,220,,535,SBD,Wraps,M,O
DQ,Ladislav Režňák,Slovakia,1989-03-24,90,87.3,-205,-210,-210,,,-110,,,,,-210,,,,,,SBD,Wraps,M,O
DQ,Anže Čož,Slovenia,1996-06-06,90,88.6,220,230,-242.5,230,,135,145,-150,145,,-270,-280,-280,,,,SBD,Wraps,M,O
DQ,Pavel Staroba,Czechia,1993-05-11,90,89.9,-240,-240,-240,,,-150,,,,,-250,,,,,,SBD,Wraps,M,O
1,Thiago Gonçalves da Luz,Brazil,1997-08-04,100,98.1,-277.5,-277.5,277.5,277.5,,195,207.5,212.5,212.5,,295,302.5,-310,302.5,,792.5,SBD,Wraps,M,O
2,Richard Novotný,Czechia,1993-05-07,100,97.5,280,-300,-300,280,,150,160,162.5,162.5,,300,317.5,-322.5,317.5,,760,SBD,Wraps,M,O
3,Simon Stopar,Slovenia,1984-03-08,100,95.8,310,-335.5,-335.5,310,,145,155,-165,155,,280,-290,-300,280,,745,SBD,Wraps,M,O
4,Richard Cvrkal,Czechia,1994-04-21,100,98.45,295,-310,-310,295,,165,175,-180,175,,270,-290,-292.5,270,,740,SBD,Wraps,M,O
5,Mateusz Morawiec,Poland,1985-09-27,100,95.45,240,-252.5,255,255,,150,157.5,160,160,,272.5,285,295,295,,710,SBD,Wraps,M,O
6,Remigiusz Cichosz,Poland,1995-12-21,100,98.25,210,220,-230,220,,117.5,125,-130,125,,225,235,250,250,,595,SBD,Wraps,M,O
7,Mateusz Soloch,Poland,1997-02-04,100,93.75,205,215,220,220,,135,145,-155,145,,210,225,-235,225,,590,SBD,Wraps,M,O
8,Marek Szymański,Poland,1988-01-11,100,97.75,-235,235,-250,235,,125,132.5,-137.5,132.5,,205,212.5,220,220,,587.5,SBD,Wraps,M,O
9,Grzegorz Pukalski,Poland,1986-05-02,100,97.5,200,-212.5,-212.5,200,,110,-117.5,-122.5,110,,205,-210,210,210,,520,SBD,Wraps,M,O
DQ,Dawid Drężek,Poland,1996-01-14,100,98.8,-235,-247.5,-260,,,-125,,,,,-200,,,,,,SBD,Wraps,M,O
1,Mark Topham,UK,1990-02-05,110,108.55,-270,270,290,290,,210,220,230,230,,295,310,325,325,,845,SBD,Wraps,M,O
2,Tomáš Komárek,Czechia,1993-05-08,110,107.8,280,300,310,310,,185,195,-205,195,,-285,290,305,305,,810,SBD,Wraps,M,O
3,Jan Mulač,Czechia,1987-01-26,110,108.55,270,290,-300,290,,175,185,190,190,,280,305,-317.5,305,,785,SBD,Wraps,M,O
4,Artyom Khugoyan,Armenia,1989-09-10,110,103.45,230,250,265,265,,185,192.5,-197.5,192.5,,290,300,-305,300,,757.5,SBD,Wraps,M,O
5,Jakub Kolenda,Poland,,110,105.9,240,250,-270,250,,170,180,-190,180,,300,310,315,315,,745,SBD,Wraps,M,O
6,Marcin Błaszczyk,Poland,1995-11-07,110,107.7,220,240,-260,240,,145,152.5,-157.5,152.5,,230,250,270,270,,662.5,SBD,Wraps,M,O
7,Krystian Tatara,Poland,1992-09-17,110,107.1,185,200,215,215,,140,147.5,-155,147.5,,200,220,245,245,,607.5,SBD,Wraps,M,O
DQ,Artur Meleshko,Ukraine,1996-08-30,110,105.55,-270,-280,-280,,,-200,,,,,-305,,,,,,SBD,Wraps,M,O
1,Árpád Tóth,Hungary,1986-04-18,125,112.85,230,-240,240,240,,155,165,175,175,,265,275,-280,275,,690,SBD,Wraps,M,O
2,Kamil Kargul,Poland,1985-10-26,125,116.3,260,280,-292.5,280,,160,170,180,180,,100,120,130,130,,590,SBD,Wraps,M,O
1,Albin Hasanović,Germany,1989-11-12,140,137.15,300,320,340,340,,190,210,,210,,320,-335,335,335,,885,SBD,Wraps,M,O
2,Pavel Urbánek,Czechia,1993-11-12,140,126.6,-260,260,290,290,,180,195,-205,195,,280,300,-315,300,,785,SBD,Wraps,M,O
1,Gabriele Calista,Italy,1979-08-18,90,89.3,-250,250,-270,250,,140,145,-150,145,,290,310.5,-315,310.5,,705.5,SBD,Wraps,M,M1
2,Károly Horváth,Hungary,1980-08-28,90,87.9,245,-250,-250,245,,125,-135,-135,125,,222.5,-230,-230,222.5,,592.5,SBD,Wraps,M,M1
1,Andranik Osipyan,Armenia,1980-10-18,100,99.75,-180,-180,180,180,,135,155,-167.5,155,,180,200,220,220,,555,SBD,Wraps,M,M1
1,Grzegorz Drewniany,Poland,1977-03-20,110,101,230,-245,245,245,,155,162.5,165,165,,240,260,265,265,,675,SBD,Wraps,M,M1
1,Damian Ordon,Poland,1980-06-21,125,122.15,-290,290,-320,290,,190,200,210,210,,280,300,305,305,,805,SBD,Wraps,M,M1
2,Gegham Hakobyan,Armenia,1981-07-01,125,117.8,230,-250,250,250,,145,-155,-155,145,,240,260,-270,260,,655,SBD,Wraps,M,M1
3,Marcin Czermiński,Poland,1981-04-25,125,111.25,-235,-235,240,240,,145,-152.5,152.5,152.5,,225,245,-265,245,,637.5,SBD,Wraps,M,M1
DQ,Abdollah Ghelig,Iran,1977-03-05,140,131.75,-320,-350,-350,,,-210,,,,,-240,,,,,,SBD,Wraps,M,M1
1,Daniel Cieplak,Poland,1973-10-20,82.5,82.15,210,225,230,230,,150,157.5,160,160,,220,235,-240,235,,625,SBD,Wraps,M,M2
1,Imade Bahria,France,1975-07-19,100,99.15,260,280,-300,280,,120,127.5,132.5,132.5,,280,292.5,301,301,-311,713.5,SBD,Wraps,M,M2
1,Zsolt Antal,Hungary,1975-08-27,110,108.5,275,-290.5,-290.5,275,,180,188,-192.5,188,,280,300,303,303,,766,SBD,Wraps,M,M2
2,Miroslav Hruška,Czechia,1974-08-29,110,108.75,250,260,270,270,,180,190,196,196,197.5,280,290,296,296,,762,SBD,Wraps,M,M2
3,Datuna Mzhavanadze,Georgia,1972-05-14,110,107.5,230,-240,-240,230,,180,190.5,195.5,195.5,-198,240,250,-255,250,,675.5,SBD,Wraps,M,M2
4,Hossein Zangiabadizadeh,Iran,1976-08-23,110,103.35,180,200,-225,200,,110,125,140,140,,200,230,240,240,,580,SBD,Wraps,M,M2
1,Ondrej Hudák,Slovakia,1975-02-02,125,118.75,270,290,300,300,,185,200,-205,200,,270,290,295,295,,795,SBD,Wraps,M,M2
1,Michael Schmidt,Germany,1970-02-02,75,73.55,-180,190,210,210,,135.5,140,145,145,,210,230,240,240,,595,SBD,Wraps,M,M3
1,Jan Augustat,Germany,1969-05-17,82.5,82.3,180,200,,200,,115,125,,125,,190,210,-217.5,210,,535,SBD,Wraps,M,M3
1,Richárd Ferkl,Czechia,1969-10-29,100,97.85,150,165,175,175,,115,-125,125,125,,170,185,200,200,,500,SBD,Wraps,M,M3
1,Ivan Levický,Slovakia,1970-05-06,110,101,180,-200,210,210,,135,145,-152.5,145,,230,250,,250,,605,SBD,Wraps,M,M3
DQ,Frank Ronen Eliyahu,Israel,1968-07-20,110,109.4,-175,-175,-175,,,-160,-170,-175,,,-185,-200,-210,,,,SBD,Wraps,M,M3
1,Rafał Klauz,Poland,1971-04-16,125,115.85,200,215,-230,215,,145,155,-165,155,,215,230,-240,230,,600,SBD,Wraps,M,M3
1,László Jantek,Hungary,1965-12-15,82.5,81.75,180,200,-210,200,,150,160,-162.5,160,,180,200,-210.5,200,,560,SBD,Wraps,M,M4
1,Les Attewell,UK,1966-09-12,90,88.8,200,220,-230,220,,140,150,155,155,,260,275,-285,275,,650,SBD,Wraps,M,M4
1,Vladimír Gosin,Israel,1965-06-06,100,95.4,230,240,-250,240,,150,160,170,170,,260,-270,270,270,,680,SBD,Wraps,M,M4
1,Adam Urbański,Poland,1962-05-18,110,104.2,160,170,180,180,,130,140,-145,140,,180,190,-200,190,,510,SBD,Wraps,M,M4
1,Juhani Kärkkäinen,Finland,1959-10-17,100,98.25,150,165,180,180,,-125,125,130,130,,160,185,210,210,,520,SBD,Wraps,M,M5
1,Józef Bejgrowicz,Poland,1952-09-24,82.5,82.1,-150,150,,150,,80,85,,85,,220,235.5,,235.5,,470.5,SBD,Wraps,M,M6
1,Mieczysłąw Maczka,Germany,1954-09-11,90,83.45,110,125,,125,,85,92.5,-110,92.5,,125,137.5,-152.5,137.5,,355,SBD,Wraps,M,M6
1,Józef Sokołowski,Poland,1955-07-28,110,105.45,-260,-260,260,260,,100,110,-120,110,,280,300,,300,,670,SBD,Wraps,M,M6
1,Adam Jasiński,Poland,1951-01-15,82.5,78.55,-190,195,205,205,,85,92.5,95,95,,185,192.5,200,200,,500,SBD,Wraps,M,M7
DQ,Bill Healy,Ireland,1950-04-17,82.5,81.55,-160,-160,-160,,,-120,,,,,-190,,,,,,SBD,Wraps,M,M7
1,Jozef Meravý,Slovakia,1950-04-20,100,97.4,75,90,-110,90,,75,85,-90,85,,130,150,160,160,,335,SBD,Wraps,M,M7
1,Pavlina Šedá,Czechia,2002-02-11,82.5,80.95,102.5,110,-115,110,,,,,,,,,,,,110,S,Wraps,F,T3
DQ,Yana Hotlashova,Ukraine,1999-01-16,52,51.8,-55,-65,-65,,,,,,,,,,,,,,S,Wraps,F,J
1,Anastasiia Lapina,Ukraine,1985-10-20,56,54.8,-65,65,70,70,,,,,,,,,,,,70,S,Wraps,F,O
1,Magdalena Pawelak,Poland,1991-10-28,67.5,64.8,110,117.5,-127.5,117.5,,,,,,,,,,,,117.5,S,Wraps,F,O
DQ,Ruslana Moldovanova,Ukraine,1986-06-24,110,106,-140,-140,-140,,,,,,,,,,,,,,S,Wraps,F,O
1,Iwona Napieralska,Poland,1978-10-26,48,45.2,60,-65,-65,60,,,,,,,,,,,,60,S,Wraps,F,M1
1,Mónika Bazsó,Hungary,1974-12-13,75,74.2,-165,165,175,175,,,,,,,,,,,,175,S,Wraps,F,M2
1,Lenka Štollerová,Czechia,1970-08-15,67.5,65.7,-100,100,110,110,,,,,,,,,,,,110,S,Wraps,F,M3
1,Jiří Uhrin,Czechia,2004-01-31,110,100.65,200,-220,-230,200,,,,,,,,,,,,200,S,Wraps,M,T2
DQ,Sebastian Orzeł,Poland,2005-10-08,140,132.75,-190,-200,-200,,,,,,,,,,,,,,S,Wraps,M,T2
1,Dominik Nitsche,Czechia,2002-12-31,82.5,81.4,260,270,-280,270,,,,,,,,,,,,270,S,Wraps,M,T3
1,Jan Kolář,Czechia,2002-05-18,100,97.45,-205,210,-225,210,,,,,,,,,,,,210,S,Wraps,M,T3
1,Attila Horváth,Hungary,2003-09-24,125,122.5,230,-240,245,245,-251,,,,,,,,,,,245,S,Wraps,M,T3
1,Matěj Kubíček,Czechia,2000-04-10,82.5,79.6,-240,250,-260,250,,,,,,,,,,,,250,S,Wraps,M,J
1,Maxwell Steinberg,USA,2001-02-14,100,94.4,-245,-245,245,245,,,,,,,,,,,,245,S,Wraps,M,J
1,Aleks Piciga,Slovenia,1981-10-26,75,74.8,-145,145,-157.5,145,,,,,,,,,,,,145,S,Wraps,M,O
1,Adam Vokál,Czechia,1993-08-08,90,86.7,-200,200,,200,,,,,,,,,,,,200,S,Wraps,M,O
1,Tibor Kiss,Hungary,1988-10-17,100,95.1,260,-280,-280,260,,,,,,,,,,,,260,S,Wraps,M,O
2,Patryk Berger,Poland,1994-11-17,100,98.95,180,190,200,200,,,,,,,,,,,,200,S,Wraps,M,O
1,Adam Kijak,Poland,1995-04-01,125,114.95,-345,345,-355,345,,,,,,,,,,,,345,S,Wraps,M,O
2,Dmytro Hotlashov,Ukraine,1985-06-29,125,124.5,270,280,-290,280,,,,,,,,,,,,280,S,Wraps,M,O
1,Tamás Deli,Hungary,1977-08-23,100,99.8,250,260,266,266,,,,,,,,,,,,266,S,Wraps,M,M1
1,Wojciech Walania,Poland,1976-01-29,82.5,80.45,130,-160,165,165,-170,,,,,,,,,,,165,S,Wraps,M,M2
1,Marco Lamprecht,Germany,1973-03-05,110,107.85,230,-250,-267.5,230,,,,,,,,,,,,230,S,Wraps,M,M2
1,Milan Greguš,Czechia,1968-04-30,100,99.55,-255,255,-265,255,,,,,,,,,,,,255,S,Wraps,M,M3
1,Mieczysłąw Maczka,Germany,1954-09-11,82.5,81.3,120,-142.5,145,145,,,,,,,,,,,,145,S,Wraps,M,M6
DQ,Bill Healy,Ireland,1950-04-17,82.5,80.9,-175,-175,-175,,,,,,,,,,,,,,S,Wraps,M,M7
DQ,Amin Basiri,Iran,1990-12-18,100,91.3,-170,-170,-170,,,,,,,,,,,,,,S,Multi-ply,M,O
1,Darren Bennett,Ireland,1984-07-29,110,102.8,260,280,300,300,,,,,,,,,,,,300,S,Multi-ply,M,O
2,Omid Panahi,Iran,1988-06-04,110,108.75,-140,140,-220,140,,,,,,,,,,,,140,S,Multi-ply,M,O
1,Abolfazl Estakhr,Iran,1997-05-21,125,116.3,200,230,240,240,,,,,,,,,,,,240,S,Multi-ply,M,O
1,Milan Greguš,Czechia,1968-04-30,100,99.75,285,-300,305,305,,,,,,,,,,,,305,S,Multi-ply,M,M3
1,Pavel Malina,Czechia,1960-02-25,67.5,64.2,110,130,145,145,,,,,,,,,,,,145,S,Multi-ply,M,M5
1,Karol Brečka,Czechia,1961-04-16,82.5,80.05,210,-225,-225,210,,,,,,,,,,,,210,S,Multi-ply,M,M5
1,Mieczysłąw Maczka,Germany,1954-09-11,82.5,82.35,120,140,150,150,,,,,,,,,,,,150,S,Multi-ply,M,M6
1,Natalie Hurdley,UK,1988-08-20,82.5,76.65,-90,90,100,100,110,,,,,,,,,,,100,S,Multi-ply,F,O
1,Sarah Allen #1,UK,1978-09-26,52,50.5,50,55,65,65,72.5,,,,,,,,,,,65,S,Multi-ply,F,M1
1,Dániel Oláh,Hungary,1998-02-02,90,89.95,,,,,,225,-240,250,250,-261.5,,,,,,250,B,Multi-ply,M,J
1,Bogusław Ufir,Poland,1993-02-20,67.5,65.3,,,,,,205,210,216.5,216.5,,,,,,,216.5,B,Multi-ply,M,O
1,Krzysztof Wolszczak,Poland,1985-06-02,75,73.7,,,,,,170,180,-200,180,,,,,,,180,B,Multi-ply,M,O
2,Mārtiņš Krauze,Latvia,1985-09-03,75,73.9,,,,,,-165,-170,170,170,,,,,,,170,B,Multi-ply,M,O
1,Gracjan Hnatów,Poland,1992-06-15,82.5,81.8,,,,,,192.5,205,217.5,217.5,,,,,,,217.5,B,Multi-ply,M,O
2,Zdeněk Holeček,Czechia,1988-03-30,82.5,80.65,,,,,,-190,190,-210,190,,,,,,,190,B,Multi-ply,M,O
1,Edgars Peterlēvics,Latvia,1986-06-29,90,87.35,,,,,,270,277.5,-282,277.5,-282,,,,,,277.5,B,Multi-ply,M,O
1,Darren Bennett,Ireland,1984-07-29,110,102.5,,,,,,200,210,220,220,,,,,,,220,B,Multi-ply,M,O
2,Meimand Abouzar Mahmoudi,Iran,1983-07-13,110,102.6,,,,,,120,140,150,150,,,,,,,150,B,Multi-ply,M,O
DQ,Artur Meleshko,Ukraine,1996-08-30,110,106.45,,,,,,-200,-200,-200,,,,,,,,,B,Multi-ply,M,O
1,Martin Krajčí,Slovakia,1988-01-06,125,116.25,,,,,,245,-255,-255,245,,,,,,,245,B,Multi-ply,M,O
2,Abolfazl Estakhr,Iran,1997-05-21,125,116.8,,,,,,160,175,185,185,,,,,,,185,B,Multi-ply,M,O
1,Robert Hojka,Poland,1978-11-25,75,74.45,,,,,,-115,-115,115,115,,,,,,,115,B,Multi-ply,M,M1
1,Krzysztof Zakrzewski,Poland,1977-12-09,100,99.65,,,,,,230,-240,240,240,,,,,,,240,B,Multi-ply,M,M1
1,Vaclav Marik,Czechia,1979-05-19,110,100.3,,,,,,235,-245,245,245,,,,,,,245,B,Multi-ply,M,M1
2,Dave McGuinness,Ireland,1979-07-29,110,102.25,,,,,,220,235,240,240,,,,,,,240,B,Multi-ply,M,M1
3,Andrei Kabantseff,Estonia,1976-11-20,110,106.35,,,,,,175,185,-200,185,,,,,,,185,B,Multi-ply,M,M1
4,Mohsen Fateh,Iran,1979-04-29,110,100.3,,,,,,90,-200,-200,90,,,,,,,90,B,Multi-ply,M,M1
1,Meimand Mojahed Mahmoudi,Iran,1979-04-21,125,112.8,,,,,,120,-140,140,140,,,,,,,140,B,Multi-ply,M,M1
1,Oskars Zvarts,Latvia,1978-08-18,140+,146.5,,,,,,260,270,280,280,,,,,,,280,B,Multi-ply,M,M1
1,Rafał Szendera,Poland,1971-11-05,75,74.9,,,,,,206,-211,-215,206,-215,,,,,,206,B,Multi-ply,M,M2
1,Mihails Rekaikinis,Latvia,1976-07-19,100,98.85,,,,,,220,-230,-230,220,,,,,,,220,B,Multi-ply,M,M2
1,Rafał Pałubicki,Poland,1976-10-04,110,110,,,,,,250,-265,-270,250,,,,,,,250,B,Multi-ply,M,M2
DQ,Ondrej Hudák,Slovakia,1975-02-02,125,117.7,,,,,,-275,,,,,,,,,,,B,Multi-ply,M,M2
1,Liam Gannon,Ireland,1970-03-15,82.5,80.25,,,,,,120,135,150,150,,,,,,,150,B,Multi-ply,M,M3
1,Milan Greguš,Czechia,1968-04-30,100,99.8,,,,,,202.5,,,202.5,,,,,,,202.5,B,Multi-ply,M,M3
1,László Baross,Hungary,1970-11-06,110,109.95,,,,,,-140,140,,140,,,,,,,140,B,Multi-ply,M,M3
1,Mohsen Estakhri,Iran,1969-12-17,125,123.95,,,,,,110,-155,-155,110,,,,,,,110,B,Multi-ply,M,M3
1,Saša Mašanović,Montenegro,1967-07-04,140,130.05,,,,,,215,225,232.5,232.5,-240,,,,,,232.5,B,Multi-ply,M,M3
2,Károly Németh,Hungary,1971-01-15,140,126.85,,,,,,150,160,170,170,,,,,,,170,B,Multi-ply,M,M3
1,Tahvo Jauhojärvi,Sweden,1961-12-08,75,73.9,,,,,,180.5,185,,185,,,,,,,185,B,Multi-ply,M,M4
1,István Csertek,Hungary,1964-10-01,125,122.75,,,,,,160,170,-180,170,,,,,,,170,B,Multi-ply,M,M4
DQ,Wojciech Kramer,Poland,1961-08-10,125,120,,,,,,-185,-185,-205,,,,,,,,,B,Multi-ply,M,M5
1,Antoni Kaliňski,Poland,1953-10-01,67.5,66.45,,,,,,110,115,120,120,,,,,,,120,B,Multi-ply,M,M6
1,Bernard Hojka,Poland,1953-02-12,75,74.25,,,,,,60,-70,,60,,,,,,,60,B,Multi-ply,M,M6
1,Mieczysłąw Maczka,Germany,1954-09-11,82.5,81.2,,,,,,90,-100,,90,,,,,,,90,B,Multi-ply,M,M6
1,Franciszek Szabluk,Poland,1956-09-17,100,100,,,,,,200,210,220,220,-240,,,,,,220,B,Multi-ply,M,M6
1,Libor Hurdálek,Czechia,1954-08-05,110,103.25,,,,,,165,-175,177.5,177.5,,,,,,,177.5,B,Multi-ply,M,M6
1,László Jobbágy,Hungary,1947-08-09,82.5,79.85,,,,,,130,140,-145,140,,,,,,,140,B,Multi-ply,M,M7
1,Stefan Sochaňski,Poland,1948-11-17,90,87.8,,,,,,-82.5,82.5,,82.5,,,,,,,82.5,B,Multi-ply,M,M7
1,Wojciech Grabowski,Poland,1951-03-31,110,109.8,,,,,,210,220,-225,220,,,,,,,220,B,Multi-ply,M,M7
1,Charlotte O'Boyle,UK,1994-07-22,56,53.08,,,,,,40,45,-55,45,,,,,,,45,B,Multi-ply,F,O
2,Anastasiia Lapina,Ukraine,1985-10-20,56,54.28,,,,,,30,-35,37.5,37.5,,,,,,,37.5,B,Multi-ply,F,O
1,Natalie Hurdley,UK,1988-08-20,82.5,77,,,,,,55,62.5,-72.5,62.5,,,,,,,62.5,B,Multi-ply,F,O
1,Sarah Allen #1,UK,1978-09-26,52,50.76,,,,,,35,40,-45,40,,,,,,,40,B,Multi-ply,F,M1
1,Moonika Aus,Estonia,1971-04-19,60,60,,,,,,75,-80,80,80,,,,,,,80,B,Multi-ply,F,M3
1,Brigitte Maczka,Germany,1961-10-05,75,72.5,,,,,,32.5,37.5,40,40,,,,,,,40,B,Multi-ply,F,M5
1,Tomasz Miloch,Poland,1983-09-17,75,74.65,,,,,,,,,,,230,250,-261,250,,250,D,Multi-ply,M,O
1,Giancarlo Natale,Italy,1982-06-24,100,94.7,,,,,,,,,,,275,-290,-290,275,,275,D,Multi-ply,M,O
1,Darren Bennett,Ireland,1984-07-29,110,102.5,,,,,,,,,,,280,300,-321,300,-321,300,D,Multi-ply,M,O
DQ,Artur Meleshko,Ukraine,1996-08-30,110,106.45,,,,,,,,,,,-310,-310,-310,,,,D,Multi-ply,M,O
1,Hossein Zangiabadizadeh,Iran,1976-08-23,110,101.75,,,,,,,,,,,200,230,240,240,,240,D,Multi-ply,M,M2
1,Simon Csaba,Hungary,,82.5,82,,,,,,,,,,,220,240,260,260,270,260,D,Multi-ply,M,M3
2,Liam Gannon,Ireland,1970-03-15,82.5,80.25,,,,,,,,,,,140,180,-200,180,,180,D,Multi-ply,M,M3
1,Ivan Levický,Slovakia,1970-05-06,110,101.2,,,,,,,,,,,240,255,265,265,270,265,D,Multi-ply,M,M3
2,Michal Šafařík,Czechia,1967-01-14,110,107.65,,,,,,,,,,,225,242.5,257.5,257.5,,257.5,D,Multi-ply,M,M3
1,Peter Kotschenreuther,Germany,1963-12-30,100,97.5,,,,,,,,,,,200,220,225,225,225.5,225,D,Multi-ply,M,M4
1,Karol Kornel Repiský,Slovakia,1964-06-24,125,122.85,,,,,,,,,,,235,250,-255,250,,250,D,Multi-ply,M,M4
1,Karol Brečka,Czechia,1961-04-16,82.5,80.25,,,,,,,,,,,210,225,227.5,227.5,,227.5,D,Multi-ply,M,M5
1,Antoni Kaliňski,Poland,1953-10-01,67.5,66.45,,,,,,,,,,,135,141,150,150,160,150,D,Multi-ply,M,M6
1,Mieczysłąw Maczka,Germany,1954-09-11,82.5,81.2,,,,,,,,,,,125,140,-150,140,,140,D,Multi-ply,M,M6
1,Bill Healy,Ireland,1950-04-17,82.5,80.4,,,,,,,,,,,182.5,190,197.5,197.5,202.5,197.5,D,Multi-ply,M,M7
1,Stefan Sochaňski,Poland,1948-11-17,90,87.8,,,,,,,,,,,165,180,,180,,180,D,Multi-ply,M,M7
1,Jaroslav Tomanec,Czechia,,90,82.7,,,,,,,,,,,145,150,155,155,,155,D,Multi-ply,M,M8
1,Charlotte O'Boyle,UK,1994-07-22,56,53.08,,,,,,,,,,,105,110,-115,110,,110,D,Multi-ply,F,O
2,Anastasiia Lapina,Ukraine,1985-10-20,56,54.28,,,,,,,,,,,55,65,80,80,,80,D,Multi-ply,F,O
1,Natalie Hurdley,UK,1988-08-20,82.5,77,,,,,,,,,,,110,120,130,130,,130,D,Multi-ply,F,O
1,Sarah Allen #1,UK,1978-09-26,52,50.76,,,,,,,,,,,80,85,90,90,,90,D,Multi-ply,F,M1
1,Tina Iuorio,Italy,1980-12-26,67.5,67.05,,,,,,,,,,,170,180,187.5,187.5,-192.5,187.5,D,Multi-ply,F,M1
1,Mónika Bazsó,Hungary,1974-12-13,75,74.15,,,,,,,,,,,200,210.5,216,216,220,216,D,Multi-ply,F,M2
1,Jenny Milliron,Ireland,1975-08-31,82.5,82.2,,,,,,,,,,,150,,,150,,150,D,Multi-ply,F,M2
1,Moonika Aus,Estonia,1971-04-19,60,60,,,,,,,,,,,110,120,130,130,,130,D,Multi-ply,F,M3
1,Brigitte Maczka,Germany,1961-10-05,75,72.5,,,,,,,,,,,90,100,105,105,,105,D,Multi-ply,F,M5
1,Kateřina Janoutová,Czechia,2002-08-11,56,55.96,,,,,,60,-65,-65,60,,,,,,,60,B,Raw,F,T3
1,Iveta Mikesková,Czechia,2002-01-23,60,56.9,,,,,,55,57.5,60,60,,,,,,,60,B,Raw,F,T3
2,Simona Rančev,Czechia,2002-02-28,60,57.58,,,,,,50,55,-57.5,55,,,,,,,55,B,Raw,F,T3
1,Jagoda Owczarek,Poland,2002-02-11,67.5,64.95,,,,,,40,45,-52.5,45,,,,,,,45,B,Raw,F,T3
1,Natalia Wencel,Poland,1997-11-28,56,54.7,,,,,,62.5,67.5,-70,67.5,,,,,,,67.5,B,Raw,F,J
1,Zuzana Mautnerová,Czechia,2000-09-04,67.5,66.35,,,,,,47.5,52.5,-55,52.5,,,,,,,52.5,B,Raw,F,J
1,Marina Schermer,Germany,1985-03-07,60,58.58,,,,,,87.5,95,102.5,102.5,,,,,,,102.5,B,Raw,F,O
1,Andrea Benešová,Czechia,1992-01-07,67.5,63.1,,,,,,80,85,90,90,,,,,,,90,B,Raw,F,O
2,Kamila Wyderska,Poland,1996-10-08,67.5,64.1,,,,,,60,62.5,65,65,,,,,,,65,B,Raw,F,O
1,Kateryna Luzhanska,Ukraine,1982-03-16,75,69.9,,,,,,62.5,-67.5,-67.5,62.5,,,,,,,62.5,B,Raw,F,O
2,Kateřina Potůčková,Czechia,1981-11-03,75,67.95,,,,,,50,55,60,60,,,,,,,60,B,Raw,F,O
3,Barbora Hamplová,Czechia,1990-04-09,75,68.5,,,,,,40,45,-47.5,45,,,,,,,45,B,Raw,F,O
1,Małgorzata Malikowska-Pikula,Poland,1985-11-29,82.5,80.7,,,,,,145,150,155,155,,,,,,,155,B,Raw,F,O
2,Agnieszka Kubeczek,Poland,1986-12-06,82.5,76.7,,,,,,55,-60,-60,55,,,,,,,55,B,Raw,F,O
1,Tetiana Dudnik,Ukraine,1983-05-24,90,85.95,,,,,,95,100,107.5,107.5,,,,,,,107.5,B,Raw,F,O
1,Magdalena Ciureja,Poland,1988-08-17,110,92.8,,,,,,67.5,70,75,75,,,,,,,75,B,Raw,F,O
1,Sabine Allner,Germany,1984-06-08,110+,115.9,,,,,,-120,120,135.5,135.5,140,,,,,,135.5,B,Raw,F,O
1,Ewelina Kasprzak,Poland,1978-11-06,67.5,65.35,,,,,,-60,-60,60,60,,,,,,,60,B,Raw,F,M1
1,Olha Krotova,Ukraine,1978-10-27,82.5,78.1,,,,,,85,90,-92.5,90,,,,,,,90,B,Raw,F,M1
2,Edit Borka,Hungary,1980-01-09,82.5,75.65,,,,,,75,80,-85,80,,,,,,,80,B,Raw,F,M1
1,Anita Dénes-Nagy,Hungary,1974-03-05,56,55.34,,,,,,67.5,73,75,75,,,,,,,75,B,Raw,F,M2
1,Daniela Poláková,Czechia,1976-08-13,60,58.55,,,,,,75,82.5,87.5,87.5,,,,,,,87.5,B,Raw,F,M2
1,Evelin Eisensehr,Hungary,1973-11-16,90,84.15,,,,,,110,115,120,120,,,,,,,120,B,Raw,F,M2
1,Moonika Aus,Estonia,1971-04-19,60,60,,,,,,52.5,57.5,60,60,,,,,,,60,B,Raw,F,M3
1,Katalin Schindlerné Kis,Hungary,1970-12-21,67.5,66.8,,,,,,100,110,115,115,117.5,,,,,,115,B,Raw,F,M3
1,Brigette Maczka,Germany,1961-10-05,75,72.7,,,,,,32.5,37.5,40,40,,,,,,,40,B,Raw,F,M5
1,Gígja Kristjánsdóttir Gudbjörg,Iceland,1947-07-03,110,95.8,,,,,,50,-55,55,55,-57.5,,,,,,55,B,Raw,F,M7
1,Anna Kubaszewska,Poland,1995-01-21,52,48.74,,,,,,60,65,70,70,,,,,,,70,B,Raw,F,Para
1,Szymon Krajewski,Poland,2007-09-24,82.5,82.5,,,,,,85,90,92.5,92.5,,,,,,,92.5,B,Raw,M,T1
1,Volodymyr Galyga,Ukraine,2005-08-16,67.5,63,,,,,,75,80,-85,80,,,,,,,80,B,Raw,M,T2
1,Marcin Sobiński,Poland,2005-10-12,75,73.2,,,,,,110,-115,-117.5,110,,,,,,,110,B,Raw,M,T2
2,Kamil Płaksa,Poland,2005-01-09,75,71.55,,,,,,-100,100,105,105,,,,,,,105,B,Raw,M,T2
1,Adam Kaiser,Czechia,2005-03-04,100,98.2,,,,,,-110,115,-120,115,,,,,,,115,B,Raw,M,T2
1,Ondřej Stellar,Czechia,2004-09-20,110,103.1,,,,,,120,-130,130,130,,,,,,,130,B,Raw,M,T2
1,Deyman Abdi Mohammadkasr,Iran,2005-06-07,125,121.05,,,,,,50,75,-100,75,,,,,,,75,B,Raw,M,T2
1,Norbert Słupski,Poland,2005-04-07,140,131.45,,,,,,140,-150,-150,140,,,,,,,140,B,Raw,M,T2
1,Yulian Sidun,Czechia,2003-08-09,60,59.85,,,,,,107.5,115,-122.5,115,,,,,,,115,B,Raw,M,T3
2,Filip Prchal,Czechia,2003-05-30,60,59.35,,,,,,102.5,105,-110,105,,,,,,,105,B,Raw,M,T3
1,Marek Kratochvíl,Czechia,2003-04-13,67.5,65.75,,,,,,125,-130,-130,125,,,,,,,125,B,Raw,M,T3
1,Jakub Maťko,Slovakia,2002-06-18,75,68.5,,,,,,120,125,130,130,,,,,,,130,B,Raw,M,T3
1,Wiktor Tatara,Poland,2003-09-28,82.5,80.65,,,,,,135,145,-155,145,,,,,,,145,B,Raw,M,T3
2,Dominik Nitsche,Czechia,2002-12-31,82.5,82.05,,,,,,145,-150,-152.5,145,,,,,,,145,B,Raw,M,T3
1,Wojciech Jabłoński,Poland,2003-04-23,90,87.95,,,,,,140,-150,150,150,,,,,,,150,B,Raw,M,T3
1,Sebastian Świtoński,Poland,1998-04-09,67.5,67.5,,,,,,137.5,-150.5,-150.5,137.5,,,,,,,137.5,B,Raw,M,J
1,Petr Bartošík,Czechia,2001-05-23,82.5,82.05,,,,,,142.5,147.5,152.5,152.5,,,,,,,152.5,B,Raw,M,J
2,Matyáš Šenkýř,Czechia,1999-06-21,82.5,81.95,,,,,,135,142.5,150,150,,,,,,,150,B,Raw,M,J
3,Tamás Benedek Lóczi,Hungary,2001-05-30,82.5,79.95,,,,,,105,112.5,-117.5,112.5,,,,,,,112.5,B,Raw,M,J
1,Marcin Oleś,Poland,1997-10-30,90,88.2,,,,,,160,-165,165,165,,,,,,,165,B,Raw,M,J
2,Petr Valchář,Czechia,2001-10-05,90,86.1,,,,,,130,142.5,-152.5,142.5,,,,,,,142.5,B,Raw,M,J
1,Matěj Syrovátka,Czechia,1998-10-28,100,98,,,,,,210,220,227.5,227.5,230,,,,,,227.5,B,Raw,M,J
2,Piotr Garbaczewski,Poland,1997-12-12,100,98,,,,,,205,210,-215,210,,,,,,,210,B,Raw,M,J
3,Dominik Kovalčík,Czechia,1999-01-30,100,94.8,,,,,,185,195,-202.5,195,,,,,,,195,B,Raw,M,J
4,Maxwell Steinberg,USA,2001-02-14,100,92.5,,,,,,-165,165,-177.5,165,,,,,,,165,B,Raw,M,J
1,Lukáš Gorol,Czechia,1998-02-23,110,107.2,,,,,,210,220,225,225,,,,,,,225,B,Raw,M,J
2,Tomáš Hovorka,Czechia,1998-08-04,110,104.95,,,,,,190,-200,-200,190,,,,,,,190,B,Raw,M,J
1,Filip Krajča,Czechia,1999-08-26,125,116.45,,,,,,190,210,220,220,,,,,,,220,B,Raw,M,J
1,Mariusz Pikor,Poland,1988-08-16,67.5,67,,,,,,147.5,155,-160,155,,,,,,,155,B,Raw,M,O
2,Tomasz Pierunek,Poland,1988-12-29,67.5,67.5,,,,,,-125,125,130,130,,,,,,,130,B,Raw,M,O
3,Jiří Lacina,Czechia,1991-04-28,67.5,63.75,,,,,,110,120,-122.5,120,,,,,,,120,B,Raw,M,O
1,Roman Eremashvili,Belarus,1981-05-27,75,73.75,,,,,,212.5,222.5,227.5,227.5,,,,,,,227.5,B,Raw,M,O
2,Vladimir Agasaryan,Lithuania,1991-10-09,75,74.15,,,,,,-180,180,-185,180,,,,,,,180,B,Raw,M,O
3,Stanislav Beneš,Czechia,1989-12-04,75,73.65,,,,,,160,170,-175,170,,,,,,,170,B,Raw,M,O
4,Oleh Boiko,Ukraine,1986-08-10,75,74.85,,,,,,157.5,165,-170,165,,,,,,,165,B,Raw,M,O
5,Dawid Kluczyńśki,Poland,1990-11-28,75,74.4,,,,,,-145,152.5,-160,152.5,,,,,,,152.5,B,Raw,M,O
6,Łukasz Cywiński,Poland,1990-04-12,75,71.65,,,,,,-125,127.5,-132.5,127.5,,,,,,,127.5,B,Raw,M,O
1,Mateusz Pawelak,Poland,1990-10-14,82.5,81.2,,,,,,190,-200,-200,190,,,,,,,190,B,Raw,M,O
2,Zdeněk Holeček,Czechia,1988-03-30,82.5,80,,,,,,165,175,180,180,,,,,,,180,B,Raw,M,O
3,Gábor Molnár,Hungary,1992-12-08,82.5,80.25,,,,,,165,-175,175,175,,,,,,,175,B,Raw,M,O
4,Ján Šebo,Slovakia,1991-11-13,82.5,78.75,,,,,,132.5,140,145,145,,,,,,,145,B,Raw,M,O
1,Artur Miksa,Poland,1983-09-26,90,89.05,,,,,,225,235,240,240,,,,,,,240,B,Raw,M,O
2,Josef Rey,Czechia,1984-09-03,90,88.2,,,,,,195,200,-205,200,,,,,,,200,B,Raw,M,O
3,Andrii Kotovenko,Ukraine,1983-01-16,90,89.9,,,,,,185,192.5,-197.5,192.5,,,,,,,192.5,B,Raw,M,O
4,Filip Stanko,Slovakia,1990-05-25,90,87.65,,,,,,185,190,-192.5,190,,,,,,,190,B,Raw,M,O
5,Łukasz Gajdulewicz,Poland,1997-01-18,90,89.45,,,,,,170,-180,-180,170,,,,,,,170,B,Raw,M,O
6,Jaroslav Vácha,Czechia,1995-07-17,90,85.05,,,,,,165,-170,-170,165,,,,,,,165,B,Raw,M,O
1,Ákos Oláh,Hungary,1989-03-04,100,98.7,,,,,,200,212.5,220,220,,,,,,,220,B,Raw,M,O
2,Jarosław Buczko,Poland,1992-04-24,100,99,,,,,,220,-230,-230,220,,,,,,,220,B,Raw,M,O
3,Tomasz Trzciński,Poland,1982-09-17,100,100,,,,,,210,217.5,-220,217.5,,,,,,,217.5,B,Raw,M,O
4,Rasoul Hosseini Ebrahimi,Iran,1982-08-09,100,96.95,,,,,,190,210,-217.5,210,,,,,,,210,B,Raw,M,O
5,Thiago Gonçalves da Luz,Brazil,1997-08-04,100,99.15,,,,,,205,-215,-215,205,,,,,,,205,B,Raw,M,O
6,Yevhenii Bohovyk,Ukraine,1995-03-26,100,96.35,,,,,,200,-210,-212.5,200,,,,,,,200,B,Raw,M,O
7,Volodymyr Galyga,Ukraine,1983-08-12,100,99.2,,,,,,197.5,-205,-205,197.5,,,,,,,197.5,B,Raw,M,O
8,Mateusz Garbowski,Poland,1993-05-07,100,95.3,,,,,,180,187.5,195,195,,,,,,,195,B,Raw,M,O
9,Radosław Brzoza,Poland,1986-03-27,100,98.7,,,,,,180,190,-195,190,,,,,,,190,B,Raw,M,O
10,Hubert Przybyłek,Poland,1993-08-11,100,97.5,,,,,,175,180,-185,180,,,,,,,180,B,Raw,M,O
1,Ádám Moszkál,Hungary,1996-01-31,110,109.25,,,,,,235,247.5,252.5,252.5,,,,,,,252.5,B,Raw,M,O
2,Alexandr Popa,Czechia,1988-05-09,110,109.95,,,,,,225,235,-242.5,235,,,,,,,235,B,Raw,M,O
3,Mateusz Kaczmarek,Poland,1993-05-16,110,106.4,,,,,,220,225,230,230,,,,,,,230,B,Raw,M,O
4,Arkadiusz Redzynia,Poland,1993-01-14,110,107.2,,,,,,220,-227.5,-227.5,220,,,,,,,220,B,Raw,M,O
5,Tomasz Pakulak,Poland,1991-05-23,110,101.95,,,,,,190,-197.5,200,200,,,,,,,200,B,Raw,M,O
6,David Kovalčík,Czechia,1996-10-19,110,100.35,,,,,,170,180,-190,180,,,,,,,180,B,Raw,M,O
7,Ivan Polichetti,Italy,1981-11-17,110,109.7,,,,,,160,-165,-165,160,,,,,,,160,B,Raw,M,O
1,Martin Tuček,Czechia,1992-02-18,125,122.8,,,,,,220,250,255,255,,,,,,,255,B,Raw,M,O
DQ,Iaroslav Vdovychenko,Ukraine,1984-06-27,125,114.9,,,,,,-230,-230,-230,,,,,,,,,B,Raw,M,O
1,László Mészáros,Hungary,1968-12-30,140,135.8,,,,,,250,262.5,272.5,272.5,,,,,,,272.5,B,Raw,M,O
2,Miroslav Semín,Czechia,1986-03-29,140,126.5,,,,,,230,240,245,245,,,,,,,245,B,Raw,M,O
3,Tomáš Nesvadba,Czechia,1993-07-02,140,139.85,,,,,,230,240,-242.5,240,,,,,,,240,B,Raw,M,O
4,Petr Weisser,Czechia,1988-03-25,140,125.9,,,,,,210,215,-220,215,,,,,,,215,B,Raw,M,O
5,Zdeněk Večeřa,Czechia,1990-03-17,140,132.5,,,,,,200,-210,-210,200,,,,,,,200,B,Raw,M,O
6,Marcel Koštíř,Czechia,1983-05-28,140,128.5,,,,,,170,180,185,185,,,,,,,185,B,Raw,M,O
7,Adam Kornak,Czechia,1988-04-29,140,134,,,,,,-170,170,-180,170,,,,,,,170,B,Raw,M,O
DQ,Krzysztof Cieślak,Poland,1984-11-09,140,138.65,,,,,,-230,-230,-230,,,,,,,,,B,Raw,M,O
1,Tomasz Podlecki,Poland,1982-08-18,140+,147.55,,,,,,190,200,202.5,202.5,,,,,,,202.5,B,Raw,M,O
1,Wiesław Kiwacki,Poland,1976-11-11,75,71.65,,,,,,120,135,140,140,,,,,,,140,B,Raw,M,M1
1,Sebastian Niedziela,Poland,1979-04-02,82.5,81.75,,,,,,175,184,185.5,185.5,,,,,,,185.5,B,Raw,M,M1
2,Krzysztof Wieczorek,Poland,1979-01-26,82.5,78.6,,,,,,125,132.5,-137.5,132.5,,,,,,,132.5,B,Raw,M,M1
1,Přemysl Rychtera,Czechia,1980-06-25,90,87.6,,,,,,157.5,167.5,172.5,172.5,,,,,,,172.5,B,Raw,M,M1
2,Marek Tokarski,Poland,1981-08-04,90,85.95,,,,,,160,170,-180,170,,,,,,,170,B,Raw,M,M1
3,Stanislav Tůma,Czechia,1977-02-16,90,88.15,,,,,,-160,-160,160,160,,,,,,,160,B,Raw,M,M1
1,Petr Novák,Czechia,1977-10-23,100,99.05,,,,,,200,210,213,213,214,,,,,,213,B,Raw,M,M1
2,Vitalii Zinchenko,Ukraine,1980-03-28,100,92.4,,,,,,177.5,185,190,190,,,,,,,190,B,Raw,M,M1
3,Andrzej Juraszek,Poland,1977-11-30,100,93.85,,,,,,157.5,162.5,-167.5,162.5,,,,,,,162.5,B,Raw,M,M1
DQ,Mohsen Fateh,Iran,1979-04-29,100,100,,,,,,-90,-90,-90,,,,,,,,,B,Raw,M,M1
1,Andrei Kabantseff,Estonia,1976-11-20,110,106.4,,,,,,140,160,170,170,,,,,,,170,B,Raw,M,M1
1,Robert Drozdowski,Poland,1979-04-02,125,124.2,,,,,,220,230,235,235,240,,,,,,235,B,Raw,M,M1
2,Meimand Mojahed Mahmoudi,Iran,1979-04-21,125,112.7,,,,,,120,140,-145,140,,,,,,,140,B,Raw,M,M1
1,Abdollah Ghelig,Iran,1977-03-05,140,131.05,,,,,,190,210,-220,210,,,,,,,210,B,Raw,M,M1
2,Damian Dobner,Norway,1977-03-02,140,127.75,,,,,,-180,180,182.5,182.5,,,,,,,182.5,B,Raw,M,M1
3,Wojciech Śledż,Poland,1977-08-25,140,125.15,,,,,,-180,-180,180,180,,,,,,,180,B,Raw,M,M1
1,Milan Mrázek,Czechia,1979-02-13,140+,144.8,,,,,,225,-240,240,240,-243,,,,,,240,B,Raw,M,M1
2,Robert Wiejas,Poland,1977-05-26,140+,140.7,,,,,,200,215,-225,215,,,,,,,215,B,Raw,M,M1
1,Robert Tomáš,Czechia,1972-07-07,82.5,78.55,,,,,,130,-140,-140,130,,,,,,,130,B,Raw,M,M2
1,Jani Stork,Finland,1976-05-16,90,88.75,,,,,,175,180,187.5,187.5,,,,,,,187.5,B,Raw,M,M2
2,Alexander Benik,Germany,1975-08-08,90,88.7,,,,,,-167.5,167.5,170,170,,,,,,,170,B,Raw,M,M2
3,Juliusz Zbierski,Poland,1974-04-02,90,88,,,,,,152.5,157.5,-160,157.5,,,,,,,157.5,B,Raw,M,M2
4,Sławomír Purta,Poland,,90,89.2,,,,,,150,155,-160,155,,,,,,,155,B,Raw,M,M2
1,Mihails Rekaikinis,Latvia,1976-07-19,100,98.1,,,,,,160,165,170,170,,,,,,,170,B,Raw,M,M2
2,Dariusz Berta,Poland,1975-08-13,100,95.5,,,,,,145,155,-157.5,155,,,,,,,155,B,Raw,M,M2
1,Mirosław Zakrzewski,Poland,1974-01-10,125,123.25,,,,,,190,195,197.5,197.5,,,,,,,197.5,B,Raw,M,M2
2,Milan Kohout,Czechia,1972-12-23,125,122.7,,,,,,180,190,195,195,,,,,,,195,B,Raw,M,M2
3,Tomáš Chludil,Czechia,1973-03-16,125,120.85,,,,,,170,180,-190,180,,,,,,,180,B,Raw,M,M2
1,Erik Susztay,Slovakia,1972-06-28,140,129.15,,,,,,-190,-190,190,190,,,,,,,190,B,Raw,M,M2
2,Tomasz Drzewiecki,Ireland,1973-08-06,140,132.4,,,,,,170,180,-192.5,180,,,,,,,180,B,Raw,M,M2
3,Krzysztof Halczyk,Poland,1974-12-15,140,130.8,,,,,,165,172.5,-180,172.5,,,,,,,172.5,B,Raw,M,M2
1,Grzegorz Kantor,Poland,1972-01-19,140+,143.25,,,,,,175,180,-182.5,180,,,,,,,180,B,Raw,M,M2
1,László Kupcsik,Hungary,1967-01-03,82.5,82,,,,,,190,200,-205.5,200,,,,,,,200,B,Raw,M,M3
1,Oldřich Procházka,Czechia,1970-12-23,100,99.1,,,,,,185,192.5,197.5,197.5,,,,,,,197.5,B,Raw,M,M3
2,Hovhannes Yazichyan,Armenia,1971-05-08,100,96.1,,,,,,160,,,160,,,,,,,160,B,Raw,M,M3
3,Milan Greguš,Czechia,1968-04-30,100,99.95,,,,,,140,147.5,-157.5,147.5,,,,,,,147.5,B,Raw,M,M3
1,János Gombos,Hungary,1968-05-24,110,102.35,,,,,,167.5,170,172.5,172.5,,,,,,,172.5,B,Raw,M,M3
2,Frank Ronen Eliyahu,Israel,1968-07-20,110,108.9,,,,,,155,165,-170,165,,,,,,,165,B,Raw,M,M3
3,László Baross,Hungary,1970-11-06,110,108,,,,,,135,147.5,155,155,,,,,,,155,B,Raw,M,M3
1,Zsolt Tóth,Hungary,1970-02-11,140,133.2,,,,,,190,205,210,210,,,,,,,210,B,Raw,M,M3
2,Károly Németh,Hungary,1971-01-15,140,125.04,,,,,,155,160,170,170,,,,,,,170,B,Raw,M,M3
3,Adam Ubertowski,Poland,1967-02-19,140,125.7,,,,,,-150,155,167.5,167.5,,,,,,,167.5,B,Raw,M,M3
1,Tahvo Jauhojärvi,Sweden,1961-12-08,75,74.4,,,,,,140.5,147.5,152.5,152.5,-155,,,,,,152.5,B,Raw,M,M4
1,Zdeno Pupiš,Slovakia,1964-04-17,82.5,79.05,,,,,,80,90,-95,90,,,,,,,90,B,Raw,M,M4
1,Tilo Kupper,Switzerland,1964-08-03,90,89.25,,,,,,152.5,-157.5,-157.5,152.5,,,,,,,152.5,B,Raw,M,M4
2,Eilat Dudi,Israel,1965-10-16,90,87.4,,,,,,120,-125,125,125,,,,,,,125,B,Raw,M,M4
1,František Nováček,Czechia,1964-12-14,110,108.15,,,,,,180,185,187.5,187.5,190.5,,,,,,187.5,B,Raw,M,M4
1,Reiner Krieger,Germany,1960-06-21,82.5,79.85,,,,,,100,105,-110,105,,,,,,,105,B,Raw,M,M5
1,Mirosław Urbaniak,Poland,1961-04-06,90,88.45,,,,,,150,-157.5,-157.5,150,,,,,,,150,B,Raw,M,M5
2,Marek Strzałkowski,Poland,1959-10-30,90,87.9,,,,,,132.5,140,-145,140,,,,,,,140,B,Raw,M,M5
3,Peter Herák,Slovakia,1960-12-23,90,89.65,,,,,,120,127.5,130,130,,,,,,,130,B,Raw,M,M5
1,Krzysztof Kłopocki,Poland,1959-04-10,110,107.1,,,,,,167.5,172.5,176.5,176.5,,,,,,,176.5,B,Raw,M,M5
2,Július Vrbiniak,Slovakia,,110,104.25,,,,,,-135,140,142.5,142.5,,,,,,,142.5,B,Raw,M,M5
1,Andreas Friedel,Germany,1959-08-03,125,110.85,,,,,,145,152.5,-157.5,152.5,,,,,,,152.5,B,Raw,M,M5
1,Josef Gabrhel,Slovakia,1955-12-23,75,73.55,,,,,,90,100,105,105,,,,,,,105,B,Raw,M,M6
1,Karel Schoř,Czechia,1955-09-09,82.5,80.6,,,,,,130,140,142.5,142.5,,,,,,,142.5,B,Raw,M,M6
2,Gerd Müller,Germany,1952-06-16,82.5,81,,,,,,110,115,-120,115,,,,,,,115,B,Raw,M,M6
1,Zbigniew Cabaj,Poland,1955-04-10,90,87,,,,,,-100,110,115,115,,,,,,,115,B,Raw,M,M6
2,Zsolt Teleki Gábor,Hungary,1953-07-10,90,83.95,,,,,,102.5,107.5,112.5,112.5,,,,,,,112.5,B,Raw,M,M6
3,Mieczysłąw Maczka,Germany,1954-09-11,90,83.17,,,,,,90,102.5,-112.5,102.5,,,,,,,102.5,B,Raw,M,M6
1,Ryszard Wilczak,Poland,1955-10-26,100,99.75,,,,,,130,137.5,142.5,142.5,,,,,,,142.5,B,Raw,M,M6
1,Flosi Jónsson,Iceland,1954-09-28,110,105.85,,,,,,142.5,147.5,152.5,152.5,,,,,,,152.5,B,Raw,M,M6
2,Erich Koch,Czechia,1955-10-05,110,107.25,,,,,,145,150,-155,150,,,,,,,150,B,Raw,M,M6
3,Henryk Świerzy,Poland,1956-03-08,110,107.5,,,,,,135,-140,140,140,,,,,,,140,B,Raw,M,M6
1,Hynek Stružka,Czechia,1951-12-05,125,111.2,,,,,,110,120,130,130,,,,,,,130,B,Raw,M,M6
1,Józef Małek,Poland,1950-11-20,75,69.5,,,,,,87.5,92.5,95,95,,,,,,,95,B,Raw,M,M7
1,Wiesław Ostrowski,Poland,1948-03-21,90,86.3,,,,,,125,132.5,140,140,,,,,,,140,B,Raw,M,M7
2,Kazimierz Tamiłowski,Poland,1948-02-02,90,86.25,,,,,,127.5,135,138,138,,,,,,,138,B,Raw,M,M7
3,Albert Olomek,Germany,1946-10-24,90,89.3,,,,,,120,130,-140,130,,,,,,,130,B,Raw,M,M7
4,Stefan Sochaňski,Poland,1948-11-17,90,88.35,,,,,,35,,,35,,,,,,,35,B,Raw,M,M7
1,Jan Cenkiel,Poland,1949-03-16,100,95.75,,,,,,137.5,145,-147.5,145,,,,,,,145,B,Raw,M,M7
2,Marc Assirelli,France,1948-07-08,100,97.8,,,,,,-115,-115,115,115,,,,,,,115,B,Raw,M,M7
DQ,Vilém Žák,Czechia,1942-04-11,82.5,81.5,,,,,,-70,-70,-70,,,,,,,,,B,Raw,M,M8
1,Marek Trykacz,Poland,1985-10-06,67.5,65.45,,,,,,160,170,-180,170,-180,,,,,,170,B,Raw,M,Para
2,Tomasz Wolski,Poland,1989-12-02,67.5,66.9,,,,,,125,127.5,-130,127.5,,,,,,,127.5,B,Raw,M,Para
3,Krystian Tuzikowski,Poland,2001-06-19,67.5,60.25,,,,,,100,105,110,110,,,,,,,110,B,Raw,M,Para
1,Mylola Tatevosian,Ukraine,1983-02-03,75,72.5,,,,,,70,80,-101,80,,,,,,,80,B,Raw,M,Para
1,Damian Kaszuba,Poland,1990-10-02,82.5,81.35,,,,,,-130,130,135,135,,,,,,,135,B,Raw,M,Para
2,Mateusz Leśniewski,Poland,2005-01-13,82.5,80.45,,,,,,80,87.5,90,90,,,,,,,90,B,Raw,M,Para
1,Marek Strzałkowski,Poland,1959-10-30,90,87.9,,,,,,-137.5,137.5,-142.5,137.5,,,,,,,137.5,B,Raw,M,Para
1,Dominika Dąbrowska,Poland,2006-01-10,48,47.45,,,,,,,,,,,57.5,65,67.5,67.5,,67.5,D,Raw,F,T1
1,Eleonora Váchová,Czechia,2003-12-14,67.5,65.8,,,,,,,,,,,95,110,115,115,,115,D,Raw,F,T2
2,Łucja Milaniak,Poland,2003-12-10,67.5,66.25,,,,,,,,,,,80,90,100,100,,100,D,Raw,F,T2
1,Zuzanna Buchowiecka,Poland,2002-09-01,48,47.16,,,,,,,,,,,100,110,120.5,120.5,,120.5,D,Raw,F,T3
1,Magdalena Szpila,Poland,2002-03-06,52,49.32,,,,,,,,,,,120,127.5,130,130,,130,D,Raw,F,T3
1,Simona Rančev,Czechia,2002-02-28,60,58.3,,,,,,,,,,,115,122.5,127.5,127.5,,127.5,D,Raw,F,T3
2,Karolina Dubij,Poland,2002-02-12,60,58.54,,,,,,,,,,,90,100,102.5,102.5,,102.5,D,Raw,F,T3
3,Iveta Mikesková,Czechia,2002-01-23,60,58.12,,,,,,,,,,,92.5,-100,-100,92.5,,92.5,D,Raw,F,T3
1,Martyna Dubij,Poland,1999-05-14,52,51.06,,,,,,,,,,,95,105,110,110,,110,D,Raw,F,J
1,Karolina Wątorczyk,Poland,1998-09-22,60,60,,,,,,,,,,,110,120,130,130,,130,D,Raw,F,J
DQ,Nadine Schneider,Germany,1998-07-16,60,57.85,,,,,,,,,,,-120,-120,-120,,,,D,Raw,F,J
1,Zuzana Mautnerová,Czechia,2000-09-04,67.5,65.5,,,,,,,,,,,110,115,120,120,,120,D,Raw,F,J
1,Sandra Wilgos,Poland,2000-03-08,75,68.4,,,,,,,,,,,115,125,-135,125,,125,D,Raw,F,J
1,Kristýna Tomšovicová,Czechia,1998-03-22,110,100.5,,,,,,,,,,,90,105,112.5,112.5,,112.5,D,Raw,F,J
DQ,Paulina Pracownik,Poland,1990-05-27,60,59.75,,,,,,,,,,,-90,-90,-90,,,,D,Raw,F,O
1,Veronika Zemanová,Czechia,1981-02-23,67.5,60.65,,,,,,,,,,,150,160,-165,160,,160,D,Raw,F,O
1,Magdalena Ciureja,Poland,1988-08-17,110,92.45,,,,,,,,,,,115,125,135,135,,135,D,Raw,F,O
1,Ágnes Papp,Hungary,1978-01-19,52,48.74,,,,,,,,,,,110,115,-117.5,115,,115,D,Raw,F,M1
2,Sarah Allen #1,UK,1978-09-26,52,51.26,,,,,,,,,,,80,87.5,95,95,,95,D,Raw,F,M1
1,Veronika Francová,Czechia,1976-07-15,56,54.84,,,,,,,,,,,117.5,122.5,125,125,127.5,125,D,Raw,F,M2
1,Julie Davis #1,UK,1976-05-15,60,59.52,,,,,,,,,,,160,-170,-170,160,,160,D,Raw,F,M2
2,Daniela Poláková,Czechia,1976-08-13,60,59.5,,,,,,,,,,,130,140,150,150,,150,D,Raw,F,M2
1,Moonika Aus,Estonia,1971-04-19,60,59.9,,,,,,,,,,,-95,100,115,115,,115,D,Raw,F,M3
1,Brigette Maczka,Germany,1961-10-05,75,73.6,,,,,,,,,,,90,100,-107.5,100,,100,D,Raw,F,M5
1,Gígja Kristjánsdóttir Gudbjörg,Iceland,1947-07-03,110,96.5,,,,,,,,,,,110,125,-135,125,,125,D,Raw,F,M7
1,Dominik Jáci,Czechia,2007-08-15,90,87.7,,,,,,,,,,,150,160,-170,160,,160,D,Raw,M,T1
1,Dávid Simon,Hungary,2005-01-01,67.5,63,,,,,,,,,,,120,130,140,140,,140,D,Raw,M,T2
1,Sebastian Tukiendorf,Poland,,75,72.1,,,,,,,,,,,165,175,-185,175,,175,D,Raw,M,T2
2,Kamil Płaksa,Poland,2005-01-09,75,72.15,,,,,,,,,,,150,160,-167.5,160,,160,D,Raw,M,T2
1,Kacper Wielewicki,Poland,2003-10-28,90,83.45,,,,,,,,,,,140,150,-155,150,,150,D,Raw,M,T2
1,Deyman Abdi Mohammadkasr,Iran,2005-06-07,125,121.05,,,,,,,,,,,60,100,-150,100,,100,D,Raw,M,T2
1,Sebastian Orzeł,Poland,2005-10-08,140,134,,,,,,,,,,,180,190,200,200,,200,D,Raw,M,T2
1,Jakub Maťko,Slovakia,2002-06-18,75,70.6,,,,,,,,,,,195,-207.5,210,210,,210,D,Raw,M,T3
1,Maciek Trzonkowski,Poland,2003-08-23,90,86.5,,,,,,,,,,,-220,220,-230,220,,220,D,Raw,M,T3
1,Artur Kozłowski,Poland,2002-10-25,100,96,,,,,,,,,,,250,260,-270,260,,260,D,Raw,M,T3
1,Denis Jarma,Czechia,1999-03-09,60,59.68,,,,,,,,,,,200,215,230,230,-240,230,D,Raw,M,J
1,Matěj Kubíček,Czechia,2000-04-10,82.5,80.45,,,,,,,,,,,270,300,-305,300,,300,D,Raw,M,J
1,Petr Valchář,Czechia,2001-10-05,90,86.65,,,,,,,,,,,220,-240,-240,220,,220,D,Raw,M,J
1,Filip Rotter,Czechia,1999-08-27,100,96.25,,,,,,,,,,,305,320,-335,320,,320,D,Raw,M,J
2,Jan Bryła,Poland,1999-02-07,100,98.5,,,,,,,,,,,250,270,-280,270,,270,D,Raw,M,J
3,Piotr Szymański,Poland,2001-05-07,100,100,,,,,,,,,,,145,,,145,,145,D,Raw,M,J
1,Ondřej Hakala,Czechia,1998-01-17,140+,147.55,,,,,,,,,,,290,-310,-310,290,-310,290,D,Raw,M,J
1,Anton Meha,Ukraine,1991-07-10,60,57.94,,,,,,,,,,,140,160,-167.5,160,,160,D,Raw,M,O
2,Pavel Balážik,Slovakia,1979-08-23,60,58.16,,,,,,,,,,,137.5,147.5,-162.5,147.5,,147.5,D,Raw,M,O
1,Oliver Kurek,Slovakia,1999-03-23,75,75,,,,,,,,,,,290,305,-310,305,,305,D,Raw,M,O
2,Jiří Balabán,Czechia,1995-07-14,75,74.05,,,,,,,,,,,260,-272.5,-272.5,260,,260,D,Raw,M,O
1,Jakub Dušek,Czechia,1991-01-04,82.5,80.8,,,,,,,,,,,235,255,270,270,,270,D,Raw,M,O
2,Marcin Helwig,Poland,1987-07-13,82.5,81.65,,,,,,,,,,,255,270,-275,270,,270,D,Raw,M,O
3,Przemysław Kawczyński,Poland,1994-03-27,82.5,77.8,,,,,,,,,,,225,-237.5,237.5,237.5,,237.5,D,Raw,M,O
4,Ján Šebo,Slovakia,1991-11-13,82.5,80,,,,,,,,,,,210,225,227.5,227.5,,227.5,D,Raw,M,O
5,Petr Nekvapil,Czechia,1992-04-04,82.5,82.35,,,,,,,,,,,135,145,150,150,,150,D,Raw,M,O
1,Szilárd Andrási,Hungary,1997-06-09,90,89.25,,,,,,,,,,,270,280,-287.5,280,,280,D,Raw,M,O
1,Tomáš Obert,Czechia,1993-03-08,100,98.55,,,,,,,,,,,250,260,265,265,,265,D,Raw,M,O
2,Kevork Tutunjian,Armenia,1986-01-04,100,99.5,,,,,,,,,,,-220,235,250,250,,250,D,Raw,M,O
3,Patryk Berger,Poland,1994-11-17,100,99.9,,,,,,,,,,,235,250,-252.5,250,,250,D,Raw,M,O
4,Rasoul Hosseini Ebrahimi,Iran,1982-08-09,100,96.95,,,,,,,,,,,220,-237.5,-237.5,220,,220,D,Raw,M,O
DQ,Thiago Gonçalves da Luz,Brazil,1997-08-04,100,97.85,,,,,,,,,,,-295,,,,,,D,Raw,M,O
1,Artyom Khugoyan,Armenia,1989-09-10,110,104.95,,,,,,,,,,,285,-295,-302.5,285,,285,D,Raw,M,O
2,Mirosław Janeczek,Poland,1992-05-10,110,107.55,,,,,,,,,,,200,-215,215,215,,215,D,Raw,M,O
3,Viktor Keselý,Czechia,1992-12-03,110,100.8,,,,,,,,,,,180,190,195,195,,195,D,Raw,M,O
1,Adam Stuleblak,Poland,1988-11-29,125,119.55,,,,,,,,,,,-260,275,290,290,,290,D,Raw,M,O
1,Andranik Osipjan,Armenia,1980-10-18,100,99.4,,,,,,,,,,,190,210,225,225,,225,D,Raw,M,M1
1,Mariusz Bartołowicz,Poland,1979-12-10,110,109,,,,,,,,,,,300,305,,305,,305,D,Raw,M,M1
2,Grzegorz Drewniany,Poland,1977-03-20,110,101.55,,,,,,,,,,,225,250,270,270,,270,D,Raw,M,M1
3,Mohsen Fateh,Iran,1979-04-29,110,101.2,,,,,,,,,,,120,140,160,160,,160,D,Raw,M,M1
1,Abdollah Ghelig,Iran,1977-03-05,140,131.05,,,,,,,,,,,230,260,280,280,,280,D,Raw,M,M1
2,Sławomir Milewski,Poland,1981-04-18,140,127.5,,,,,,,,,,,180,210,-230,210,,210,D,Raw,M,M1
1,Adam Švehla,Czechia,1981-03-19,140+,142.5,,,,,,,,,,,320,347.5,,347.5,,347.5,D,Raw,M,M1
1,Paweł Pracownik,Poland,1973-08-27,75,74.35,,,,,,,,,,,250,270,285,285,,285,D,Raw,M,M2
1,Horvath Zsolt,Hungary,1975-01-26,82.5,80.5,,,,,,,,,,,220,240,250,250,,250,D,Raw,M,M2
2,Konrad Troll,Poland,1972-09-07,82.5,78.4,,,,,,,,,,,190,200,,200,,200,D,Raw,M,M2
1,Zdeněk Brauner,Czechia,1972-07-08,100,95.9,,,,,,,,,,,250,267.5,272.5,272.5,,272.5,D,Raw,M,M2
2,Ivan Obert,Czechia,1973-02-10,100,97.25,,,,,,,,,,,100,,,100,,100,D,Raw,M,M2
1,Josef Jeníček,Czechia,1973-06-16,110,104.15,,,,,,,,,,,215,-220,-220,215,,215,D,Raw,M,M2
DQ,Tomasz Drzewiecki,Ireland,1973-08-06,140,132.25,,,,,,,,,,,-170,-170,-170,,,,D,Raw,M,M2
1,Simon Csaba,Hungary,,82.5,82.15,,,,,,,,,,,230,250,-270,250,-270,250,D,Raw,M,M3
1,Krzysztof Tur,Poland,1967-07-30,100,93,,,,,,,,,,,235,245,-252.5,245,,245,D,Raw,M,M3
1,Robert Nemś,Poland,1969-06-15,125,118.5,,,,,,,,,,,240,260,270,270,,270,D,Raw,M,M3
1,Zdeno Pupiš,Slovakia,1964-04-17,82.5,78.2,,,,,,,,,,,160,170,-175,170,,170,D,Raw,M,M4
1,Eilat Dudi,Israel,1965-10-16,90,87.3,,,,,,,,,,,230,243.5,-245.5,243.5,,243.5,D,Raw,M,M4
1,Attila Heizer,Hungary,1965-12-26,100,94,,,,,,,,,,,160,170,180,180,,180,D,Raw,M,M4
1,Gagik Tonoyan,Armenia,1966-07-05,110,108.8,,,,,,,,,,,267.5,275,-282.5,275,,275,D,Raw,M,M4
2,Tibor Gejdoš,Slovakia,1963-11-18,110,105.1,,,,,,,,,,,220,240,250,250,,250,D,Raw,M,M4
1,Sejfo Šehović,Bosnia and Herzegovina,1959-08-13,75,72.5,,,,,,,,,,,230,245,250,250,,250,D,Raw,M,M5
1,Peter Herák,Slovakia,1960-12-23,90,88.5,,,,,,,,,,,220,233,237.5,237.5,240,237.5,D,Raw,M,M5
2,Marian Knuth,Poland,1958-01-25,90,88.9,,,,,,,,,,,200,210,-222.5,210,,210,D,Raw,M,M5
1,Wiesław Wrŏbel,Poland,1957-07-02,100,98.55,,,,,,,,,,,240,255,-271,255,,255,D,Raw,M,M5
1,Robert Brassuer,France,1961-05-27,110,108.4,,,,,,,,,,,220,230,-240,230,,230,D,Raw,M,M5
1,Lee Marshall,UK,1959-01-11,125,114.55,,,,,,,,,,,270,290,-300,290,,290,D,Raw,M,M5
1,Josef Gabrhel,Slovakia,1955-12-23,75,73.95,,,,,,,,,,,160,172.5,177.5,177.5,,177.5,D,Raw,M,M6
1,Karel Schoř,Czechia,1955-09-09,82.5,79.75,,,,,,,,,,,175,-190,-190,175,,175,D,Raw,M,M6
2,Mieczysłąw Maczka,Germany,1954-09-11,82.5,82.4,,,,,,,,,,,125,,,125,,125,D,Raw,M,M6
1,Józef Bejgrowicz,Poland,1952-09-24,90,83.35,,,,,,,,,,,210,220,233,233,,233,D,Raw,M,M6
2,Zbigniew Cabaj,Poland,1955-04-10,90,87.1,,,,,,,,,,,180,200,210,210,,210,D,Raw,M,M6
3,Gerd Müller,Germany,1952-06-16,90,82.55,,,,,,,,,,,150,160,-175,160,,160,D,Raw,M,M6
1,Józef Sokołowski,Poland,1955-07-28,110,108.25,,,,,,,,,,,260,-280,-280,260,,260,D,Raw,M,M6
2,Flosi Jónsson,Iceland,1954-09-28,110,106.1,,,,,,,,,,,190,200,210,210,,210,D,Raw,M,M6
1,Ryszard Śliwiński,Poland,1950-01-22,75,73.5,,,,,,,,,,,140,150,155,155,,155,D,Raw,M,M7
DQ,Bill Healy,Ireland,1950-04-17,82.5,80.4,,,,,,,,,,,-180,,,,,,D,Raw,M,M7
1,Jan Łuka,Poland,1949-06-07,90,86.25,,,,,,,,,,,220,-235,-235,220,,220,D,Raw,M,M7
2,Stefan Sochaňski,Poland,1948-11-17,90,88.25,,,,,,,,,,,160,175,-180,175,,175,D,Raw,M,M7
