Division,WeightClassKg,Place,Name,Team,BodyweightKg,Best3SquatKg,Best3BenchKg,Best3DeadliftKg,TotalKg,Equipment,Event,Sex
Boys,51.71,1,Fernando Gonzalez,McAllen Memorial,50.17,122.47,86.18,149.69,358.34,Single-ply,SBD,M
Boys,51.71,2,Enoch Solis,Edinburg Economedes,48.81,136.08,74.84,136.08,347,Single-ply,SBD,M
Boys,51.71,3,Juan Villarreal #5,Edinburg North,51.35,92.99,74.84,117.93,285.76,Single-ply,SBD,M
Boys,55.79,1,Kevin Trevino,McAllen Memorial,55.61,154.22,113.4,176.9,444.52,Single-ply,SBD,M
Boys,55.79,2,Samuel Garcia,Weslaco,55.52,117.93,72.57,127.01,317.51,Single-ply,SBD,M
Boys,55.79,DQ,Edgar No Last Name,Edinburg Vela,55.61,165.56,99.79,,,Single-ply,SBD,M
Boys,59.87,1,Hugo Gomez,Edinburg North,59.78,174.63,108.86,181.44,464.93,Single-ply,SBD,M
Boys,59.87,2,Fernando Martinez #2,Weslaco,59.01,161.03,95.25,181.44,437.72,Single-ply,SBD,M
Boys,59.87,3,Stanley Davis,McAllen Memorial,59.33,136.08,92.99,145.15,374.21,Single-ply,SBD,M
Boys,59.87,4,Ruben D Saenz III,McAllen Rowe,59.78,136.08,74.84,136.08,347,Single-ply,SBD,M
Boys,59.87,5,Diego Esquivel,La Feria,57.79,129.27,70.31,138.35,337.93,Single-ply,SBD,M
Boys,59.87,6,Ryan Richter,Weslaco,57.7,117.93,68.04,145.15,331.12,Single-ply,SBD,M
Boys,59.87,7,Fernando Cavazos,La Joya Palmview,56.7,120.2,61.23,136.08,317.51,Single-ply,SBD,M
Boys,59.87,8,Aaron Esquiver,Weslaco,59.01,92.99,63.5,92.99,249.48,Single-ply,SBD,M
Boys,67.13,1,Tony Sauceda,Edinburg Economedes,64.95,213.19,136.08,210.92,560.19,Single-ply,SBD,M
Boys,67.13,2,Moses Olivarez,McAllen Memorial,66.04,222.26,117.93,208.65,548.85,Single-ply,SBD,M
Boys,67.13,3,Daniel Lozano,Weslaco,64.59,195.04,129.27,195.04,519.36,Single-ply,SBD,M
Boys,67.13,4,Angel Vasques,Edinburg Vela,64.86,163.29,115.67,176.9,455.86,Single-ply,SBD,M
Boys,67.13,5,Jose Narnano,Weslaco,64.55,156.49,95.25,165.56,417.3,Single-ply,SBD,M
Boys,67.13,6,Carlos Arjona,La Joya Palmview,65.32,129.27,68.04,136.08,333.39,Single-ply,SBD,M
Boys,74.84,1,Francisco Marin,Weslaco,74.03,258.55,156.49,235.87,650.91,Single-ply,SBD,M
Boys,74.84,2,Ricardo Miranda,Los Fresnos,74.66,224.53,138.35,265.35,628.23,Single-ply,SBD,M
Boys,74.84,3,Cristian Maldonado,Los Fresnos,74.48,233.6,124.74,238.14,596.47,Single-ply,SBD,M
Boys,74.84,4,Julio Bautista,Edinburg Economedes,70.49,192.78,117.93,217.72,528.44,Single-ply,SBD,M
Boys,74.84,5,Alejandro Cortez,Edinburg North,74.75,195.04,111.13,215.46,521.63,Single-ply,SBD,M
Boys,74.84,6,Armando Ramirez,Edinburg North,71.67,199.58,111.13,208.65,519.36,Single-ply,SBD,M
Boys,74.84,7,Troy de la Garza,La Feria,74.12,183.7,120.2,201.85,505.76,Single-ply,SBD,M
Boys,74.84,8,Mathew Alvarado,Weslaco,73.62,190.51,113.4,195.04,498.95,Single-ply,SBD,M
Boys,74.84,9,Devin Alvarado,McAllen Memorial,74.39,192.78,113.4,188.24,494.42,Single-ply,SBD,M
Boys,74.84,10,Christoper Pascual,Edinburg Economedes,68.13,181.44,117.93,192.78,492.15,Single-ply,SBD,M
Boys,74.84,11,Julian Trevino,Edinburg Vela,74.03,183.7,117.93,183.7,485.34,Single-ply,SBD,M
Boys,74.84,12,Jesus Banue,Los Fresnos,68.22,181.44,95.25,201.85,478.54,Single-ply,SBD,M
Boys,74.84,13,Rufino Hernandez,Edinburg North,74.3,133.81,97.52,170.1,401.43,Single-ply,SBD,M
Boys,74.84,14,Adam Alvarado,McAllen Rowe,69.22,142.88,83.91,161.03,387.82,Single-ply,SBD,M
Boys,74.84,15,David Guzman,La Joya Palmview,69.85,136.08,77.11,154.22,367.41,Single-ply,SBD,M
Boys,74.84,16,Brian Espinoza,Weslaco,72.62,122.47,74.84,138.35,335.66,Single-ply,SBD,M
Boys,82.1,1,Robert La Buff,Weslaco,81.74,254.01,149.69,249.48,653.17,Single-ply,SBD,M
Boys,82.1,2,Sebastian Gonzalez,Los Fresnos,81.83,238.14,129.27,215.46,582.87,Single-ply,SBD,M
Boys,82.1,3,Oscar Mendoza,La Joya Palmview,82.1,217.72,149.69,210.92,578.33,Single-ply,SBD,M
Boys,82.1,4,Julian Hernandez,McAllen Memorial,82.01,219.99,149.69,201.85,571.53,Single-ply,SBD,M
Boys,82.1,5,Elian Gonzalez,Los Fresnos,80.29,222.26,120.2,219.99,562.45,Single-ply,SBD,M
Boys,82.1,6,Eduardo Cortez,McAllen Memorial,81.47,210.92,131.54,206.38,548.85,Single-ply,SBD,M
Boys,82.1,7,Jc Peraza,Weslaco,78.2,210.92,133.81,192.78,537.51,Single-ply,SBD,M
Boys,82.1,8,Juan Contreras,Edinburg Economedes,77.11,197.31,124.74,210.92,532.97,Single-ply,SBD,M
Boys,82.1,9,David Saldana,McAllen Rowe,79.83,165.56,111.13,197.31,474,Single-ply,SBD,M
Boys,82.1,10,Jalen Ybarra,La Joya Palmview,75.21,163.29,83.91,149.69,396.89,Single-ply,SBD,M
Boys,82.1,11,Joshua Mata,Weslaco,81.69,136.08,68.04,142.88,347,Single-ply,SBD,M
Boys,82.1,DQ,Alex Zuniga,Edinburg Economedes,77.11,224.53,,,,Single-ply,SBD,M
Boys,89.81,1,Lane Thomae,Los Fresnos,89.27,229.06,142.88,233.6,605.55,Single-ply,SBD,M
Boys,89.81,2,Eduardo Zapata,Los Fresnos,88.81,231.33,117.93,226.8,576.06,Single-ply,SBD,M
Boys,89.81,3,Zeke Lozano,Weslaco,85,226.8,142.88,204.12,573.79,Single-ply,SBD,M
Boys,89.81,4,Ricky de Leon,Edinburg Economedes,89.81,213.19,133.81,224.53,571.53,Single-ply,SBD,M
Boys,89.81,5,Michael Morales,McAllen Rowe,83.82,210.92,131.54,195.04,537.51,Single-ply,SBD,M
Boys,89.81,6,Robert Garza,Los Fresnos,85.91,195.04,113.4,219.99,528.44,Single-ply,SBD,M
Boys,89.81,7,Aaron Garcia,Weslaco,88.13,213.19,113.4,197.31,523.9,Single-ply,SBD,M
Boys,89.81,8,Justin Valdez,Edinburg Vela,88.36,188.24,106.59,188.24,483.08,Single-ply,SBD,M
Boys,89.81,9,Matthew Guzman,Edinburg Vela,85.55,183.7,113.4,174.63,471.74,Single-ply,SBD,M
Boys,89.81,10,Jose Lugo,La Feria,88.72,183.7,111.13,174.63,469.47,Single-ply,SBD,M
Boys,89.81,11,Aaron Gonzalez,McAllen Rowe,89.54,167.83,108.86,188.24,464.93,Single-ply,SBD,M
Boys,89.81,12,Erick Rangel,La Feria,86.36,185.97,106.59,163.29,455.86,Single-ply,SBD,M
Boys,89.81,13,Alberto Vargas,La Joya Palmview,84.01,136.08,104.33,181.44,421.84,Single-ply,SBD,M
Boys,89.81,14,Abraham Rodriguez,Weslaco,89.54,149.69,102.06,163.29,415.04,Single-ply,SBD,M
Boys,89.81,15,Aaron Pena,Edinburg Vela,84.37,158.76,88.45,154.22,401.43,Single-ply,SBD,M
Boys,99.79,1,Arturo Alvarado,La Feria,99.16,260.82,161.03,226.8,648.64,Single-ply,SBD,M
Boys,99.79,2,Lorenzo Villarreal,Los Fresnos,99.52,235.87,151.95,247.21,635.03,Single-ply,SBD,M
Boys,99.79,3,Mario Reyna,Edinburg Economedes,99.79,240.4,154.22,235.87,630.49,Single-ply,SBD,M
Boys,99.79,4,Dylan Earhart,McAllen Memorial,97.52,263.08,142.88,215.46,621.42,Single-ply,SBD,M
Boys,99.79,5,Axel Hernandez #1,McAllen Memorial,93.62,226.8,131.54,235.87,594.21,Single-ply,SBD,M
Boys,99.79,6,Danny Vasquez,La Joya Palmview,92.17,240.4,129.27,204.12,573.79,Single-ply,SBD,M
Boys,99.79,7,Freddy Lozano,La Feria,93.53,226.8,142.88,204.12,573.79,Single-ply,SBD,M
Boys,99.79,8,Justin Torres,McAllen Rowe,99.43,204.12,113.4,229.06,546.58,Single-ply,SBD,M
Boys,99.79,9,Juan Casarez,Edinburg North,96.52,183.7,140.61,204.12,528.44,Single-ply,SBD,M
Boys,99.79,10,Jose Quintero,McAllen Rowe,92.71,204.12,127.01,190.51,521.63,Single-ply,SBD,M
Boys,99.79,11,Pablo Rodriguez,Edinburg North,99.52,183.7,127.01,190.51,501.22,Single-ply,SBD,M
Boys,99.79,12,George Garcia,La Feria,94.08,201.85,108.86,172.37,483.08,Single-ply,SBD,M
Boys,99.79,13,Alfredo Moreno,Weslaco,98.61,161.03,99.79,183.7,444.52,Single-ply,SBD,M
Boys,99.79,14,Daniel Robledo,Weslaco,98.57,120.2,70.31,133.81,324.32,Single-ply,SBD,M
Boys,99.79,15,Gabriel Montes,La Joya Palmview,94.98,102.06,56.7,147.42,306.17,Single-ply,SBD,M
Boys,99.79,DQ,Erasmo Garces,Weslaco,94.03,158.76,,,,Single-ply,SBD,M
Boys,109.77,1,Marcos Garza,Edinburg Economedes,106.68,297.1,199.58,274.42,771.11,Single-ply,SBD,M
Boys,109.77,2,Luis Rivas,Los Fresnos,100.7,251.74,138.35,210.92,601.01,Single-ply,SBD,M
Boys,109.77,3,Matthew Alfaro,Edinburg Economedes,101.42,217.72,127.01,208.65,553.38,Single-ply,SBD,M
Boys,109.77,4,Michel Anzaldua,Edinburg North,105.78,197.31,127.01,204.12,528.44,Single-ply,SBD,M
Boys,109.77,5,Alexandar Guerra,McAllen Memorial,107.23,201.85,99.79,174.63,476.27,Single-ply,SBD,M
Boys,109.77,6,Jovani Naveja,Weslaco,107.59,181.44,106.59,181.44,469.47,Single-ply,SBD,M
Boys,109.77,7,Roland Moralez,Weslaco,107.68,190.51,102.06,158.76,451.32,Single-ply,SBD,M
Boys,109.77,8,Alejandro Mendiola,La Joya Palmview,106.87,131.54,72.57,158.76,362.87,Single-ply,SBD,M
Boys,109.77,9,Jermemiah Nino,Weslaco,108.91,102.06,68.04,115.67,285.76,Single-ply,SBD,M
Boys,124.74,1,Austin Cardenas,Weslaco,122.47,263.08,161.03,217.72,641.83,Single-ply,SBD,M
Boys,124.74,2,Javy Soriano,Los Fresnos,112.4,238.14,149.69,226.8,614.62,Single-ply,SBD,M
Boys,124.74,3,Raul Martinez,Weslaco,123.42,231.33,129.27,199.58,560.19,Single-ply,SBD,M
Boys,124.74,4,Jesse Garza,McAllen Rowe,114.03,185.97,127.01,192.78,505.76,Single-ply,SBD,M
Boys,124.74,5,Carlos Torres,La Feria,115.94,192.78,83.91,183.7,460.4,Single-ply,SBD,M
Boys,124.74,6,Aalok Zimmerman,McAllen Rowe,122.56,185.97,102.06,161.03,449.06,Single-ply,SBD,M
Boys,124.74+,1,Sam Perez,Weslaco,128.05,281.23,163.29,226.8,671.32,Single-ply,SBD,M
Boys,124.74+,2,Bryan Aguillon,McAllen Rowe,131.72,244.94,156.49,244.94,646.37,Single-ply,SBD,M
Boys,124.74+,3,Sergio Reyna,McAllen Memorial,125.92,256.28,158.76,219.99,635.03,Single-ply,SBD,M
Boys,124.74+,4,Ruben Arreola,Edinburg North,126.19,240.4,151.95,240.4,632.76,Single-ply,SBD,M
Boys,124.74+,5,Justin Medina,Edinburg Economedes,155.49,238.14,156.49,226.8,621.42,Single-ply,SBD,M
Boys,124.74+,6,Ivan Tejada,La Feria,128.64,247.21,124.74,219.99,591.94,Single-ply,SBD,M
Boys,124.74+,7,Triston Rosales,La Feria,128.91,206.38,111.13,170.1,487.61,Single-ply,SBD,M
Boys,124.74+,8,Victor Balderas,La Joya Palmview,159.57,145.15,81.65,145.15,371.95,Single-ply,SBD,M
