Place,Name,Division,BodyweightKg,WeightClassKg,Age,Squat1Kg,Squat2Kg,Squat3Kg,Best3SquatKg,Bench1Kg,Bench2Kg,Bench3Kg,Best3BenchKg,Deadlift1Kg,Deadlift2Kg,Deadlift3Kg,Best3DeadliftKg,TotalKg,Sex,Event,Equipment,BirthDate
1,Ellie Steel,Open,56.68,57,29.5,-192.5,-192.5,192.5,192.5,125,132.5,140,140,160,172.5,-185,172.5,505,F,SBD,Single-ply,
2,Emma Goodwin,Open,51.47,52,33.5,165,170,-175,170,-82.5,-82.5,82.5,82.5,175,187.5,-195.5,187.5,440,F,SBD,Single-ply,
3,Sheri Miles,Open,74.76,76,34.5,-182.5,182.5,192.5,192.5,-102.5,-102.5,102.5,102.5,202.5,215,225,225,520,F,SBD,Single-ply,
4,Christie Civetta,Open,83.15,84,28.5,195,205,212.5,212.5,135,-142.5,-152.5,135,172.5,180,187.5,187.5,535,F,SBD,Single-ply,
1,Robert Palmer #2,Open,90.99,93,38.5,345,360,372.5,372.5,260,-267.5,-267.5,260,272.5,295.0,302.5,302.5,935,M,SBD,Single-ply,
2,Phillip Richard,Open,73.79,74,49.5,265,280,290.5,290.5,-190.5,-190.5,190.5,190.5,220,250,-260,250,731,M,SBD,Single-ply,
3,Ranbir Singh Sahota,Open,132.60,120+,37.5,350,370,-385,370,215,-225,-225,215,290,310,-322.5,310,895,M,SBD,Single-ply,
