Division,WeightClassKg,Place,Name,Team,BodyweightKg,Best3SquatKg,Best3BenchKg,Best3DeadliftKg,TotalKg,Equipment,Event,Sex,BirthDate
Boys,55.79,1,Lane Smith,Ozona,55.61,158.76,97.52,149.69,405.97,Single-ply,SBD,M,
Boys,59.87,1,Cougar Jetton,San Angelo Grape Creek,59.19,151.95,83.91,140.61,376.48,Single-ply,SBD,M,
Boys,74.84,1,Carlos Cantu,Ozona,72.8,188.24,111.13,183.7,483.08,Single-ply,SBD,M,
Boys,74.84,2,Matthew Delagarza,Ozona,74.62,165.56,106.59,174.63,446.79,Single-ply,SBD,M,
Boys,74.84,3,Eddie Rios,Ozona,70.49,147.42,83.91,122.47,353.8,Single-ply,SBD,M,
Boys,82.1,1,Lucas Jordahl,San Angelo Grape Creek,80.78,151.95,97.52,174.63,424.11,Single-ply,SBD,M,
Boys,82.1,DQ,Caleb Hill,San Angelo TLC Academy,79.61,158.76,92.99,,,Single-ply,SBD,M,
Boys,89.81,1,Reese Fisher,San Angelo TLC Academy,88.59,104.33,99.79,142.88,347,Single-ply,SBD,M,
Boys,99.79,1,Joey Holm,San Angelo TLC Academy,93.98,117.93,70.31,122.47,310.71,Single-ply,SBD,M,
Boys,109.77,1,Spencer Riddle,San Angelo TLC Academy,107.18,156.49,79.38,158.76,394.63,Single-ply,SBD,M,
Boys,109.77,DQ,Logan Bradford,San Angelo TLC Academy,107.59,,,,,Single-ply,SBD,M,
Boys,139.71,1,Keano Perez,Ozona,138.89,272.16,149.69,235.87,657.71,Single-ply,SBD,M,
