Division,WeightClassKg,Place,Name,Team,BodyweightKg,Best3SquatKg,Best3BenchKg,Best3DeadliftKg,TotalKg,Equipment,Event,Sex
Boys,51.71,1,Chasmon Davis,Everman,50.26,167.83,61.23,172.37,401.43,Single-ply,SBD,M
Boys,51.71,2,Felix Espinoza,Crandall,51.17,145.15,86.18,145.15,376.48,Single-ply,SBD,M
Boys,51.71,3,Trace Woodruff,Crandall,50.8,124.74,79.38,131.54,335.66,Single-ply,SBD,M
Boys,51.71,4,Gio Lozano,North Forney,51.71,88.45,61.23,111.13,260.82,Single-ply,SBD,M
Boys,51.71,5,Ralen Allen,Everman,46.27,83.91,34.02,92.99,210.92,Single-ply,SBD,M
Boys,51.71,6,Brendon Patterson,Sunnyvale,50.44,72.57,38.56,83.91,195.04,Single-ply,SBD,M
Boys,51.71,7,CJ Leos,Sunnyvale,51.71,97.52,,,97.52,Single-ply,S,M
Boys,51.71,DQ,Ethan James,Melissa,51.71,,,,,Single-ply,S,M
Boys,51.71,DQ,Zane Dunman,North Forney,49.17,,,,,Single-ply,S,M
Boys,55.79,1,Ever Barron,Everman,55.25,183.7,106.59,185.97,476.27,Single-ply,SBD,M
Boys,55.79,2,Zachary Doyle,Royse City,55.07,165.56,79.38,163.29,408.23,Single-ply,SBD,M
Boys,55.79,3,Juan Botello,Red Oak,55.34,127.01,72.57,122.47,322.05,Single-ply,SBD,M
Boys,55.79,4,Braylin Witherspoon,South Garland,54.16,97.52,56.7,136.08,290.3,Single-ply,SBD,M
Boys,55.79,5,Gaylen Cobb,Terrell,54.57,106.59,68.04,106.59,281.23,Single-ply,SBD,M
Boys,55.79,6,Myles Williams,Melissa,55.61,106.59,58.97,111.13,276.69,Single-ply,SBD,M
Boys,55.79,DQ,Dylan Slyter,Sunnyvale,55.79,,,,,Single-ply,SBD,M
Boys,59.87,1,Keiotti Bray,Paris,56.7,195.04,117.93,183.7,496.68,Single-ply,SBD,M
Boys,59.87,2,Tajohn Livingston,South Garland,59.87,176.9,79.38,215.46,471.74,Single-ply,SBD,M
Boys,59.87,3,Logan Combs,Royse City,58.88,161.03,102.06,174.63,437.72,Single-ply,SBD,M
Boys,59.87,4,Kollin Moss,Royse City,59.87,179.17,83.91,167.83,430.91,Single-ply,SBD,M
Boys,59.87,5,Kyle Amos,Royse City,59.15,158.76,68.04,165.56,392.36,Single-ply,SBD,M
Boys,59.87,6,Jonathan Martin,Forney,58.92,140.61,79.38,140.61,360.61,Single-ply,SBD,M
Boys,59.87,7,Brice Dennis,Royse City,59.69,113.4,74.84,158.76,347,Single-ply,SBD,M
Boys,59.87,8,Cameron Gamrod,Canton,59.87,120.2,72.57,124.74,317.51,Single-ply,SBD,M
Boys,59.87,9,Ben Neichlic,Red Oak,56.97,92.99,54.43,122.47,269.89,Single-ply,SBD,M
Boys,59.87,DQ,AC King,Mesquite Poteet,59.78,,,,,Single-ply,SBD,M
Boys,59.87,DQ,Coleman Sims,Forney,58.69,,,,,Single-ply,SBD,M
Boys,59.87,DQ,Marcus Moore,North Forney,59.6,,,,,Single-ply,SBD,M
Boys,67.13,1,Gavin West,Forney,67,172.37,102.06,181.44,455.86,Single-ply,SBD,M
Boys,67.13,2,Akil Lewis,Forney,66.72,163.29,99.79,190.51,453.59,Single-ply,SBD,M
Boys,67.13,3,Chance Cruz,Argyle,64.14,181.44,86.18,183.7,451.32,Single-ply,SBD,M
Boys,67.13,4,Devon Rundles,Forney,67.04,156.49,102.06,172.37,430.91,Single-ply,SBD,M
Boys,67.13,5,Kedric Elldridge,Everman,65.59,165.56,90.72,170.1,426.38,Single-ply,SBD,M
Boys,67.13,6,Jacoby Brown,Royse City,67.13,167.83,83.91,161.03,412.77,Single-ply,SBD,M
Boys,67.13,7,GiTaeus Young,Paris,62.32,158.76,88.45,163.29,410.5,Single-ply,SBD,M
Boys,67.13,8,Connor Luke,Scurry-Rosser,66.04,145.15,79.38,174.63,399.16,Single-ply,SBD,M
Boys,67.13,9,Jacob Donaldson,North Forney,66.95,147.42,88.45,158.76,394.63,Single-ply,SBD,M
Boys,67.13,10,Jose Cervantes,North Mesquite,67.13,108.86,72.57,142.88,324.32,Single-ply,SBD,M
Boys,67.13,11,Connor Wilson,North Forney,66.59,106.59,74.84,120.2,301.64,Single-ply,SBD,M
Boys,74.84,1,Gabriel Dexter,Forney,74.8,231.33,140.61,213.19,585.13,Single-ply,SBD,M
Boys,74.84,2,Anthony Perez,North Forney,74.66,199.58,113.4,206.38,519.36,Single-ply,SBD,M
Boys,74.84,3,Omar Villegas,Melissa,67.59,199.58,108.86,190.51,498.95,Single-ply,SBD,M
Boys,74.84,4,Diego Cortez,Everman,74.57,195.04,99.79,192.78,487.61,Single-ply,SBD,M
Boys,74.84,5,Daniel Dlegado,South Garland,73.57,183.7,111.13,190.51,485.34,Single-ply,SBD,M
Boys,74.84,6,Jack Parker,Melissa,74.21,204.12,97.52,183.7,485.34,Single-ply,SBD,M
Boys,74.84,7,Landen Mantooth,Rockwall-Heath,68.4,181.44,111.13,176.9,469.47,Single-ply,SBD,M
Boys,74.84,8,Montrel McCarty,Paris,69.67,161.03,108.86,183.7,453.59,Single-ply,SBD,M
Boys,74.84,9,Jasser Sappayani,Sunnyvale,74.84,172.37,92.99,170.1,435.45,Single-ply,SBD,M
Boys,74.84,10,Wilder Gross,Crandall,74.66,170.1,95.25,165.56,430.91,Single-ply,SBD,M
Boys,74.84,11,Hunter Williams,Canton,72.76,170.1,77.11,163.29,410.5,Single-ply,SBD,M
Boys,74.84,12,Bragen Gross,Crandall,68.95,149.69,102.06,149.69,401.43,Single-ply,SBD,M
Boys,74.84,13,Tommy Doan,North Mesquite,74.84,151.95,79.38,161.03,392.36,Single-ply,SBD,M
Boys,74.84,14,Jacob Grimes,Crandall,72.3,138.35,104.33,136.08,378.75,Single-ply,SBD,M
Boys,74.84,15,Zac Bartis,Sunnyvale,72.12,142.88,83.91,145.15,371.95,Single-ply,SBD,M
Boys,74.84,16,Seth Dorsey,Mesquite Horn,74.84,140.61,83.91,145.15,369.68,Single-ply,SBD,M
Boys,74.84,17,Jatavian McGee,Canton,68.86,142.88,79.38,142.88,365.14,Single-ply,SBD,M
Boys,74.84,18,Noah Hughes,Mabank,71.67,129.27,83.91,133.81,347,Single-ply,SBD,M
Boys,74.84,DQ,Aaron Mount,Forney,72.53,,,,,Single-ply,SBD,M
Boys,74.84,DQ,Donnie Schultz,Kemp,71.21,,,,,Single-ply,SBD,M
Boys,74.84,DQ,Torrion Smith,North Mesquite,70.58,120.2,,,,Single-ply,SBD,M
Boys,74.84,DQ,Ennis Ralkestran,Duncanville,70.94,,,,,Single-ply,SBD,M
Boys,82.1,1,Johnathan Mendez,Kemp,81.28,242.67,115.67,204.12,562.45,Single-ply,SBD,M
Boys,82.1,2,Abjose Robles,Everman,80.65,226.8,102.06,215.46,544.31,Single-ply,SBD,M
Boys,82.1,3,Tripp McCada,Sunnyvale,77.38,217.72,124.74,195.04,537.51,Single-ply,SBD,M
Boys,82.1,4,Thatcher Davis,Royse City,81.47,210.92,113.4,210.92,535.24,Single-ply,SBD,M
Boys,82.1,5,Aaron Ambriz,Everman,78.29,192.78,122.47,201.85,517.1,Single-ply,SBD,M
Boys,82.1,6,Greyson Burrus,Forney,81.19,204.12,104.33,183.7,492.15,Single-ply,SBD,M
Boys,82.1,7,Austin Payne,Sunnyvale,81.56,183.7,102.06,206.38,492.15,Single-ply,SBD,M
Boys,82.1,8,Adrian Vital,Royse City,82.1,195.04,117.93,176.9,489.88,Single-ply,SBD,M
Boys,82.1,9,Christian Davis,Mesquite Poteet,79.92,174.63,104.33,192.78,471.74,Single-ply,SBD,M
Boys,82.1,10,Braylon Brown,Melissa,81.47,197.31,95.25,170.1,462.66,Single-ply,SBD,M
Boys,82.1,11,Samuel Inyang,North Mesquite,81.56,181.44,97.52,183.7,462.66,Single-ply,SBD,M
Boys,82.1,12,Daetrin Kirk,North Mesquite,79.47,158.76,83.91,192.78,435.45,Single-ply,SBD,M
Boys,82.1,13,Josue Bustamante,Mesquite Poteet,81.87,167.83,102.06,163.29,433.18,Single-ply,SBD,M
Boys,82.1,14,Leonard Epps,Terrell,76.11,190.51,77.11,149.69,417.3,Single-ply,SBD,M
Boys,82.1,15,Kobie Norman,North Forney,80.01,176.9,81.65,158.76,417.3,Single-ply,SBD,M
Boys,82.1,16,Chris Rubalcab,North Mesquite,75.02,170.1,95.25,142.88,408.23,Single-ply,SBD,M
Boys,82.1,17,Nick Jones,Mesquite Horn,80.29,145.15,79.38,149.69,374.21,Single-ply,SBD,M
Boys,82.1,18,Preston Roberts,Canton,81.92,158.76,70.31,145.15,374.21,Single-ply,SBD,M
Boys,82.1,19,Andrew Jarahills,Royse City,82.1,102.06,74.84,120.2,297.1,Single-ply,SBD,M
Boys,82.1,20,Fabian Castanada,Everman,78.38,113.4,86.18,90.72,290.3,Single-ply,SBD,M
Boys,82.1,DQ,Blake Wilson,Mabank,77.38,149.69,,,,Single-ply,SBD,M
Boys,89.81,1,Edgar Guzman,Everman,88.09,244.94,117.93,238.14,601.01,Single-ply,SBD,M
Boys,89.81,2,Aidan Murrey,Royse City,85.55,226.8,140.61,219.99,587.4,Single-ply,SBD,M
Boys,89.81,3,Garrett Smith,Royse City,89.27,242.67,122.47,204.12,569.26,Single-ply,SBD,M
Boys,89.81,4,Caden Hayes,Melissa,84.37,226.8,117.93,210.92,555.65,Single-ply,SBD,M
Boys,89.81,5,Aaron Watson,Red Oak,86.64,210.92,111.13,226.8,548.85,Single-ply,SBD,M
Boys,89.81,6,Blake Holloway,Mesquite Poteet,86.82,192.78,129.27,226.8,548.85,Single-ply,SBD,M
Boys,89.81,7,Amir Rabah,Rockwall-Heath,86,210.92,129.27,197.31,537.51,Single-ply,SBD,M
Boys,89.81,8,Tyler Bryant,Crandall,87.63,215.46,124.74,197.31,537.51,Single-ply,SBD,M
Boys,89.81,9,Andrew Acosta,Scurry-Rosser,86.36,199.58,122.47,199.58,521.63,Single-ply,SBD,M
Boys,89.81,10,Jayvin Rodriguez,Melissa,88.9,204.12,122.47,170.1,496.68,Single-ply,SBD,M
Boys,89.81,11,Justin Mays,Melissa,89.81,204.12,97.52,183.7,485.34,Single-ply,SBD,M
Boys,89.81,12,Jacob Wiggins,Mabank,89.81,181.44,115.67,185.97,483.08,Single-ply,SBD,M
Boys,89.81,13,Michael Jones #10,Everman,89.81,192.78,113.4,170.1,476.27,Single-ply,SBD,M
Boys,89.81,14,Trent Tennon,Paris,88.9,170.1,90.72,199.58,460.4,Single-ply,SBD,M
Boys,89.81,15,Michael Davis #7,Mabank,88.45,185.97,99.79,167.83,453.59,Single-ply,SBD,M
Boys,89.81,16,Dyan Pun,Sunnyvale,89.27,183.7,102.06,158.76,444.52,Single-ply,SBD,M
Boys,89.81,17,Gerardo Soto,North Mesquite,84.37,136.08,83.91,158.76,378.75,Single-ply,SBD,M
Boys,89.81,18,Dillon Gray,Mabank,87.09,108.86,90.72,131.54,331.12,Single-ply,SBD,M
Boys,99.79,1,Malyk Newsome,Everman,98.61,294.84,145.15,267.62,707.6,Single-ply,SBD,M
Boys,99.79,2,Kasey Wilson,Rockwall-Heath,95.25,244.94,142.88,235.87,623.69,Single-ply,SBD,M
Boys,99.79,3,Anthony Perales,Red Oak,91.63,231.33,138.35,229.06,598.74,Single-ply,SBD,M
Boys,99.79,4,Graham Burns,Forney,95.98,222.26,127.01,217.72,566.99,Single-ply,SBD,M
Boys,99.79,5,Kenneth Randall,Kaufman,99.79,204.12,117.93,244.94,566.99,Single-ply,SBD,M
Boys,99.79,6,Harley Manders,Kemp,95.62,233.6,133.81,185.97,553.38,Single-ply,SBD,M
Boys,99.79,7,Hunter Shaw,Forney,94.8,201.85,115.67,222.26,539.77,Single-ply,SBD,M
Boys,99.79,8,Diego Liendo,Mesquite Poteet,98.79,195.04,111.13,206.38,512.56,Single-ply,SBD,M
Boys,99.79,9,Grady Brewer,Rockwall-Heath,94.53,192.78,124.74,192.78,510.29,Single-ply,SBD,M
Boys,99.79,10,Alex Harder,Canton,94.8,199.58,124.74,183.7,508.02,Single-ply,SBD,M
Boys,99.79,11,Ethan Monaco,North Forney,98.16,183.7,106.59,188.24,478.54,Single-ply,SBD,M
Boys,99.79,12,Jose Garcia #7,Everman,97.16,181.44,111.13,183.7,476.27,Single-ply,SBD,M
Boys,99.79,13,Nuasa Grant,North Mesquite,94.62,190.51,102.06,181.44,474,Single-ply,SBD,M
Boys,99.79,14,Gunner Boswell,Canton,98.16,204.12,90.72,170.1,464.93,Single-ply,SBD,M
Boys,99.79,15,Cody Wilson #5,Kaufman,92.35,151.95,120.2,181.44,453.59,Single-ply,SBD,M
Boys,99.79,16,Amari Davis,South Garland,94.53,165.56,111.13,176.9,453.59,Single-ply,SBD,M
Boys,99.79,17,Spencer Uwakwe,North Forney,99.16,170.1,113.4,165.56,449.06,Single-ply,SBD,M
Boys,99.79,18,Angel Villa,Scurry-Rosser,92.26,158.76,122.47,158.76,439.98,Single-ply,SBD,M
Boys,99.79,19,Dewaynne Levy,Sunnyvale,93.53,151.95,102.06,176.9,430.91,Single-ply,SBD,M
Boys,99.79,20,John Pope,Mabank,93.44,167.83,90.72,163.29,421.84,Single-ply,SBD,M
Boys,99.79,21,Austin Criswell,Argyle,98.79,156.49,72.57,188.24,417.3,Single-ply,SBD,M
Boys,99.79,22,Ronald Roberts,Royse City,92.08,104.33,74.84,183.7,362.87,Single-ply,SBD,M
Boys,99.79,DQ,Caleb Kroese,Melissa,99.61,226.8,,,,Single-ply,SBD,M
Boys,109.77,1,Eddie Veal,Everman,100.97,254.01,147.42,235.87,637.3,Single-ply,SBD,M
Boys,109.77,2,Izaiah Olalde,Everman,107.23,249.48,161.03,192.78,603.28,Single-ply,SBD,M
Boys,109.77,3,Owen Higbee,Rockwall-Heath,105.14,231.33,106.59,258.55,596.47,Single-ply,SBD,M
Boys,109.77,4,Alex Amar,Sunnyvale,103.42,231.33,140.61,195.04,566.99,Single-ply,SBD,M
Boys,109.77,5,Devin Sterling,Sunnyvale,105.96,231.33,124.74,210.92,566.99,Single-ply,SBD,M
Boys,109.77,6,Zyaun Jones,Red Oak,105.14,204.12,138.35,215.46,557.92,Single-ply,SBD,M
Boys,109.77,7,Clifford Funderburk,North Forney,109.54,215.46,111.13,226.8,553.38,Single-ply,SBD,M
Boys,109.77,8,Seth Bell,Forney,103.87,217.72,117.93,181.44,517.1,Single-ply,SBD,M
Boys,109.77,9,Satchel Swain,Paris,103.24,192.78,129.27,179.17,501.22,Single-ply,SBD,M
Boys,109.77,10,Carson Reveau,Scurry-Rosser,105.87,204.12,115.67,176.9,496.68,Single-ply,SBD,M
Boys,109.77,11,Noah Monroe,North Forney,109.77,195.04,95.25,204.12,494.42,Single-ply,SBD,M
Boys,109.77,12,Oscar Morquecho,Everman,105.96,192.78,111.13,170.1,474,Single-ply,SBD,M
Boys,109.77,13,Braden Tittle,Royse City,104.24,192.78,95.25,179.17,467.2,Single-ply,SBD,M
Boys,109.77,14,Andres Molina,North Mesquite,109.77,179.17,88.45,181.44,449.06,Single-ply,SBD,M
Boys,109.77,15,Jaylen Early,Duncanville,105.6,142.88,88.45,172.37,403.7,Single-ply,SBD,M
Boys,109.77,16,Drelyn McKnight,Everman,103.42,151.95,97.52,140.61,390.09,Single-ply,SBD,M
Boys,109.77,17,Braden Howerton,Royse City,101.24,161.03,70.31,149.69,381.02,Single-ply,SBD,M
Boys,109.77,DQ,Ian Corrion,Royse City,107.86,,,,,Single-ply,SBD,M
Boys,124.74,1,Jamie Cortez,Royse City,115.58,335.66,167.83,276.69,780.18,Single-ply,SBD,M
Boys,124.74,2,Willie Henderson,Mesquite Poteet,115.39,229.06,142.88,249.48,621.42,Single-ply,SBD,M
Boys,124.74,3,Joshua Aguilera,Red Oak,114.76,226.8,142.88,238.14,607.81,Single-ply,SBD,M
Boys,124.74,4,Daniel Hernandez,Everman,116.57,249.48,124.74,226.8,601.01,Single-ply,SBD,M
Boys,124.74,5,Jaedon Murphy,Paris,115.67,219.99,136.08,226.8,582.87,Single-ply,SBD,M
Boys,124.74,6,Malik Griffin,Terrell,119.11,231.33,122.47,213.19,566.99,Single-ply,SBD,M
Boys,124.74,7,Alex Spera,Sunnyvale,116.21,231.33,133.81,197.31,562.45,Single-ply,SBD,M
Boys,124.74,8,Nathan Johnson,Kaufman,117.93,229.06,111.13,192.78,532.97,Single-ply,SBD,M
Boys,124.74,9,Kevon Ivy,Duncanville,119.2,192.78,117.93,204.12,514.83,Single-ply,SBD,M
Boys,124.74,10,Seth Martin,Everman,111.22,192.78,106.59,208.65,508.02,Single-ply,SBD,M
Boys,124.74,11,Matthew Martinez,Mesquite Poteet,121.29,176.9,120.2,195.04,492.15,Single-ply,SBD,M
Boys,124.74,12,Dylan Case,Mabank,115.48,179.17,102.06,188.24,469.47,Single-ply,SBD,M
Boys,124.74,13,Alec Mullins,Kemp,115.67,142.88,108.86,204.12,455.86,Single-ply,SBD,M
Boys,124.74,14,Adroan Anderson,Everman,110.95,183.7,106.59,158.76,449.06,Single-ply,SBD,M
Boys,124.74,15,Billy Metzger,Sunnyvale,120.66,181.44,111.13,156.49,449.06,Single-ply,SBD,M
Boys,124.74,DQ,Josh Santell,Royse City,111.22,,,,,Single-ply,SBD,M
Boys,124.74,DQ,Tarner Hilburn,Royse City,117.3,,,,,Single-ply,SBD,M
Boys,124.74,DQ,Blake Brazell,Melissa,120.56,201.85,90.72,,,Single-ply,SBD,M
Boys,124.74,DQ,Quincy Wright,Duncanville,115.12,167.83,,,,Single-ply,SBD,M
Boys,124.74,DQ,Savion Burd,Duncanville,121.38,188.24,,,,Single-ply,SBD,M
Boys,124.74+,1,Andrew Zamora,Rockwall-Heath,143.34,294.84,172.37,249.48,716.68,Single-ply,SBD,M
Boys,124.74+,1,David Rodirguez,Mesquite Poteet,127.64,226.8,136.08,190.51,553.38,Single-ply,SBD,M
Boys,124.74+,2,Marcus Alexander,Sunnyvale,139.43,276.69,158.76,278.96,714.41,Single-ply,SBD,M
Boys,124.74+,3,Jaden Webb,Royse City,127.55,278.96,165.56,251.74,696.26,Single-ply,SBD,M
Boys,124.74+,4,Coty Neugin,Crandall,125.65,290.3,163.29,238.14,691.73,Single-ply,SBD,M
Boys,124.74+,5,Gabe Collins,Rockwall-Heath,154.22,276.69,142.88,235.87,655.44,Single-ply,SBD,M
Boys,124.74+,6,Cade Crawford,Forney,137.89,290.3,154.22,201.85,646.37,Single-ply,SBD,M
Boys,124.74+,7,Demaree Gay,Crandall,165.11,258.55,163.29,213.19,635.03,Single-ply,SBD,M
Boys,124.74+,8,Marcus Sanchez,South Garland,134.54,265.35,147.42,208.65,621.42,Single-ply,SBD,M
Boys,124.74+,9,D'Marrya Searcy,Everman,141.79,265.35,142.88,204.12,612.35,Single-ply,SBD,M
Boys,124.74+,10,Oscar Jaure,Everman,142.34,260.82,122.47,219.99,603.28,Single-ply,SBD,M
Boys,124.74+,11,Josh Hicks,Argyle,125.92,251.74,138.35,208.65,598.74,Single-ply,SBD,M
Boys,124.74+,12,Payton McClain,Red Oak,138.62,226.8,140.61,204.12,571.53,Single-ply,SBD,M
Boys,124.74+,13,Clayton Johnson,Scurry-Rosser,130.27,244.94,120.2,204.12,569.26,Single-ply,SBD,M
Boys,124.74+,14,Garrett Bowen,Melissa,125.46,240.4,127.01,188.24,555.65,Single-ply,SBD,M
Boys,124.74+,15,Josh Anderson,North Forney,138.62,210.92,131.54,204.12,546.58,Single-ply,SBD,M
Boys,124.74+,16,Sam Bartis,Sunnyvale,126.64,219.99,113.4,195.04,528.44,Single-ply,SBD,M
Boys,124.74+,17,Devin Moten,Paris,131.09,201.85,122.47,199.58,523.9,Single-ply,SBD,M
Boys,124.74+,18,Caden Saffel,Canton,131.9,226.8,102.06,192.78,521.63,Single-ply,SBD,M
Boys,124.74+,19,Colton McClain,Red Oak,144.15,204.12,133.81,183.7,521.63,Single-ply,SBD,M
Boys,124.74+,20,Isaac Allen,Mesquite Horn,129.55,199.58,115.67,199.58,514.83,Single-ply,SBD,M
Boys,124.74+,21,Lee Shaw,Mesquite Poteet,153.77,199.58,113.4,158.76,471.74,Single-ply,SBD,M
Boys,124.74+,22,Riley Tracy,North Forney,143.06,188.24,90.72,190.51,469.47,Single-ply,SBD,M
Boys,124.74+,23,Josh Lambert #5,Canton,126.78,183.7,92.99,176.9,453.59,Single-ply,SBD,M
Boys,124.74+,DQ,Stephan Dixon,Duncanville,137.89,,,,,Single-ply,SBD,M
Boys,124.74+,DQ,Bill Overton,Denton,136.26,,,,,Single-ply,SBD,M
Boys,124.74+,DQ,Jobin Chirayil,Sunnyvale,142.16,244.94,163.29,,,Single-ply,SBD,M
