Name,WeightClassKg,Best3SquatKg,Best3BenchKg,Best3DeadliftKg,TotalKg,Event,Equipment,Sex,Division,AgeRange,Place
P. Maizels,67.5,136.08,61.23,142.88,340.19,SBD,Raw,F,Open,0-999,1
A. Kang,67.5,210.92,,,,SBD,Single-ply,M,Open,0-999,DQ
S. Peters,110,197.31,147.42,226.8,571.53,SBD,Single-ply,M,Junior,20-23,1
J. Pham,67.5,140.61,86.18,165.56,392.36,SBD,Raw,M,Open,0-999,1
J. Mink,75,170.1,120.2,210.92,501.22,SBD,Raw,M,Junior,20-23,1
R. Gill,125,265.35,183.7,263.08,712.14,SBD,Raw,M,Open,0-999,1
