﻿BELGIUM DRUG FREE POWERLIFTING FEDERATION
BK. BENCH UNEQUIPPED 2015
                                            W.Class                                                                                                           1é      2é       3é       4       points
Open
1                                           52 KG De Lauw             Luc            M                  Plannet Fitness   49             M2           51,5    75      -80,5    -80,5            72,173
1                                           67,5 KG Van den Abbeele   Tim            M                  Sanitas           27             SR           66,6    105     110      120              88,164
1                                           67,5 KG Boland            Darren         M                  Sanitas           40             M1           65,6    85      90       -100             67,05
1                                           75 KG Vandenbosch         Kevin          M                  Planet Fitness    20             JR           73,0    100     105      107,5            72,982
2                                           75 KG Dierckx             Liam           M                  Planet Fitness    20             JR           67,9    95      100      -105             72,2
1                                           75 KG Roels               Tom            M                  Sanitas           24             SR           69,0    100     107,5    -112,5           76,529
2                                           75 KG Vanhaverbeke        Kenny          M                  KBBC              31             SR           71,4    100     105      107,5            74,326
1                                           75 KG Ram                 Tirth          M                  Gym 80            42             M1           75,0    150     155,5    160      -165    106,32
1                                           82,5 KG Sudarminto        Indra          M                  Planet Fitness    24             SR           78,6    150     160      167,5    -173    107,4
2                                           82,5 KG Soenens           Gillis         M                  Isogym            25             SR           81,0    137,5   145      150              94,095
1                                           90 KG Annaert             Gregg          M                  Planet Fitness    20             JR           84,0    100     105      -110             64,229
1                                           90 KG Laguesse            Alain          M                  Carstors          41             M1           88,8    160     165      170      172,5   100,32
1                                           90 KG Vandecasteele       Johan          M                  PD                51             M3           89,0    155     162,5    -170,5           95,761
2                                           90 KG Verbeke             Beny           M                  Isogym            50             M3           89,2    105     110      -115             64,735
3                                           90 KG Verblijdt           Patrick        M                  Healthfactor      52             M3           83,3    70      75       80               49,216
1                                           90 KG Devaere             Achiel         M                  Jackys Gym        67             M6           89,0    110     115      117,5    120,5   69,243
1                                           100 KG Janssens           Roel           M                  Planet Fitness    26             SR           99,7    135     145      150              83,22
2                                           100 KG Goethals           Dries          M                  KBBC              30             SR           95,3    115     125      130              73,697
3                                           100 KG De Bussere         Levi           M                  KBBC              24             SR           92,1    -105    110      -120             63,525
1                                           110 KG Gheldof            Marcel         M                  Sanitas           50             M3           107,5   145,5   152,5    -160             82,32
1                                           110 KG Goovaerts          Marc           M                  Patton Team       58             M4           106,6   125     130      -135             70,343
2                                           110 KG Vlaeminck          Oscar          M     Jacky Gym                      58             M4           105,7   90      100      -105             54,26
1                                           110 KG Secke              Jacky          M     Jackys Gym                     64             M5           104,3   140     146      -147,5           79,025
1                                           125 KG Dejans             Bjorn          M                  KBBC              29             SR           121,3   130     140      -150             73,598
1                                           125 KG Jungmann           Dieter         M                  D                 53             M3           120,4   150     165      172,5            90,839
1                                           125 KG Rogé               Johan          M                  KBBC              66             M6           121,6   110     115      120              63,048
1                                           67,5 KG Grünberg          Michael   M                       D                 49 M2          62,0         75      77,5    -80      60,946
1                                           75 KG Luxem               Jurgen    M                       Duss              44 M1          74,9         100     -110    -110     66,52
1                                           90 KG Stöbke              Christian  M                      D                 38 SR          83,1         67,5    70      -75      43,134
1                                           90 KG Schmidtmann         frank          M                  D                 53 M3          89,3         110     117,5   125      73,513
1                                           90 KG Luxem               Thomas         M                  Duss              55 M4          88,5         105     110     -115     65,054
1                                           100 KG Piron              Roger          M                  D                 54 M3          96,9         97,5    102,5   -107,5   57,626
1                                           145 KG Shapovalov         Valery         M                  D                 35 SR  129,1                -150    160     170      87,737
                                            Nat Record                                                  World Record                     Drugtested
                                            European Record                                             Best Lifter       POS
26 sept 2015 Antwerpen

BELGIUM DRUG FREE POWERLIFTING FEDERATION
BK. DEADLIFT UNEQUIPPED 2015
                                            W.Class                                                                                       1é       2é       3é            4   points
1                                           67,5 KG Van den Abbeele   Tim            M   Sanitas          27               SR     66,6    180      190      -200              139,59
1                                           67,5 KG Boland            Darren         M   Sanitas          40               M1     65,6    180      195      -200              145,28
1                                           75 KG Vandenbosch         Kevin          M   Planet Fitness   20               JR     73,0    190      -195     200               135,78
2                                           75 KG Dierckx             Liam           M   Planet Fitness   20               JR     67,9    150      170      182,5             131,77
1                                           75 KG Vanhaverbeke        Kenny          M   KBBC             31               SR     71,4    145      155      165               114,08
2                                           75 KG De Paus             Michael        M   Planet Fitness   24               SR     69,2    140      152,5    160               113,62
3                                           75 KG Roels               Tom            M   Sanitas          24               SR     69,0    140      150      -160              106,79
1                                           75 KG Ram                 Tirth          M   Gym 80           42               M1     75,0    240      246      -255,5            162,8
1                                           82,5 KG Noori             Noor           M   KBBC             17               T2     79,9    130      140      150               95,025
1                                           82,5 KG Sudarminto        Indra          M   Planet Fitness   24               SR     78,6    255      265      275               176,33
2                                           82,5 KG Soenens           Gillis         M   Isogym           25               SR     81,0    225      235      -245              147,42
1                                           90 KG Annaert             Gregg          M   Planet Fitness   20               JR     84,0    192,5    200      -205              122,34
1                                           90 KG Verbeke             Beny           M   Isogym           50               M3     89,2    273      285      295               173,61
2                                           90 KG Verblijdt           Patrick        M   Healthfactor     52               M3     83,3    140      150      160               98,432
1                                           100 KG Goethals           Dries          M   KBBC             30               SR     95,3    150      -175                       85,035
1                                           110 KG Gheldof            Marcel         M   Sanitas          50               M3     107,5   185      200      205               110,66
1                                           125 KG Dejans             Bjorn          M   KBBC             29               SR     121,3   240      250      260               136,68
1                                           - 70 KG Perulli           Jessica   V        Duss             40 M1            68,0   120     130      138,5    140  106,38
1                                           90 KG Schädlich           Johannes M                          D 31 SR          86,7   155     -162,5   -162,5   92,861
1                                           90 KG Stöbke              Christian  M                        D 38 SR          83,1   105     110      120      73,944
1                                           90 KG Schmidtmann         frank          M                    D 53 M3          89,3   200     220               129,38
1                                           125 KG Jungmann           Dieter         M                    D 53 M3  120,4          200     220               115,85
1                                           145 KG Hansen             Heiner         M                    D 53 M3  138,5          230     240      250      126,25
Nat Record                                  World Record
European Record                             Best Lifter               Drugtested
26 sept 2015 Antwerpen
